%YAML 1.1
%TAG !u! tag:unity3d.com,2011:
--- !u!29 &1
OcclusionCullingSettings:
  m_ObjectHideFlags: 0
  serializedVersion: 2
  m_OcclusionBakeSettings:
    smallestOccluder: 5
    smallestHole: 0.25
    backfaceThreshold: 100
  m_SceneGUID: 00000000000000000000000000000000
  m_OcclusionCullingData: {fileID: 0}
--- !u!104 &2
RenderSettings:
  m_ObjectHideFlags: 0
  serializedVersion: 9
  m_Fog: 0
  m_FogColor: {r: 0.5, g: 0.5, b: 0.5, a: 1}
  m_FogMode: 3
  m_FogDensity: 0.01
  m_LinearFogStart: 0
  m_LinearFogEnd: 300
  m_AmbientSkyColor: {r: 0.212, g: 0.227, b: 0.259, a: 1}
  m_AmbientEquatorColor: {r: 0.114, g: 0.125, b: 0.133, a: 1}
  m_AmbientGroundColor: {r: 0.047, g: 0.043, b: 0.035, a: 1}
  m_AmbientIntensity: 1
  m_AmbientMode: 0
  m_SubtractiveShadowColor: {r: 0.42, g: 0.478, b: 0.627, a: 1}
  m_SkyboxMaterial: {fileID: 10304, guid: 0000000000000000f000000000000000, type: 0}
  m_HaloStrength: 0.5
  m_FlareStrength: 1
  m_FlareFadeSpeed: 3
  m_HaloTexture: {fileID: 0}
  m_SpotCookie: {fileID: 10001, guid: 0000000000000000e000000000000000, type: 0}
  m_DefaultReflectionMode: 0
  m_DefaultReflectionResolution: 128
  m_ReflectionBounces: 1
  m_ReflectionIntensity: 1
  m_CustomReflection: {fileID: 0}
  m_Sun: {fileID: 0}
  m_IndirectSpecularColor: {r: 0, g: 0, b: 0, a: 1}
  m_UseRadianceAmbientProbe: 0
--- !u!157 &3
LightmapSettings:
  m_ObjectHideFlags: 0
  serializedVersion: 11
  m_GIWorkflowMode: 1
  m_GISettings:
    serializedVersion: 2
    m_BounceScale: 1
    m_IndirectOutputScale: 1
    m_AlbedoBoost: 1
    m_EnvironmentLightingMode: 0
    m_EnableBakedLightmaps: 1
    m_EnableRealtimeLightmaps: 0
  m_LightmapEditorSettings:
    serializedVersion: 12
    m_Resolution: 2
    m_BakeResolution: 40
    m_AtlasSize: 1024
    m_AO: 0
    m_AOMaxDistance: 1
    m_CompAOExponent: 1
    m_CompAOExponentDirect: 0
    m_ExtractAmbientOcclusion: 0
    m_Padding: 2
    m_LightmapParameters: {fileID: 0}
    m_LightmapsBakeMode: 1
    m_TextureCompression: 1
    m_FinalGather: 0
    m_FinalGatherFiltering: 1
    m_FinalGatherRayCount: 256
    m_ReflectionCompression: 2
    m_MixedBakeMode: 2
    m_BakeBackend: 1
    m_PVRSampling: 1
    m_PVRDirectSampleCount: 32
    m_PVRSampleCount: 512
    m_PVRBounces: 2
    m_PVREnvironmentSampleCount: 256
    m_PVREnvironmentReferencePointCount: 2048
    m_PVRFilteringMode: 1
    m_PVRDenoiserTypeDirect: 1
    m_PVRDenoiserTypeIndirect: 1
    m_PVRDenoiserTypeAO: 1
    m_PVRFilterTypeDirect: 0
    m_PVRFilterTypeIndirect: 0
    m_PVRFilterTypeAO: 0
    m_PVREnvironmentMIS: 1
    m_PVRCulling: 1
    m_PVRFilteringGaussRadiusDirect: 1
    m_PVRFilteringGaussRadiusIndirect: 5
    m_PVRFilteringGaussRadiusAO: 2
    m_PVRFilteringAtrousPositionSigmaDirect: 0.5
    m_PVRFilteringAtrousPositionSigmaIndirect: 2
    m_PVRFilteringAtrousPositionSigmaAO: 1
    m_ExportTrainingData: 0
    m_TrainingDataDestination: TrainingData
    m_LightProbeSampleCountMultiplier: 4
  m_LightingDataAsset: {fileID: 0}
  m_UseShadowmask: 1
--- !u!196 &4
NavMeshSettings:
  serializedVersion: 2
  m_ObjectHideFlags: 0
  m_BuildSettings:
    serializedVersion: 2
    agentTypeID: 0
    agentRadius: 0.5
    agentHeight: 2
    agentSlope: 45
    agentClimb: 0.4
    ledgeDropHeight: 0
    maxJumpAcrossDistance: 0
    minRegionArea: 2
    manualCellSize: 0
    cellSize: 0.16666667
    manualTileSize: 0
    tileSize: 256
    accuratePlacement: 0
    debug:
      m_Flags: 0
  m_NavMeshData: {fileID: 0}
--- !u!1001 &80166460
PrefabInstance:
  m_ObjectHideFlags: 0
  serializedVersion: 2
  m_Modification:
    m_TransformParent: {fileID: 0}
    m_Modifications:
    - target: {fileID: 1598249691231917209, guid: 1183029f3e28a6b44991cd1c2d5905c0,
        type: 3}
      propertyPath: m_LocalPosition.x
      value: -12.443224
      objectReference: {fileID: 0}
    - target: {fileID: 1598249691231917209, guid: 1183029f3e28a6b44991cd1c2d5905c0,
        type: 3}
      propertyPath: m_LocalPosition.y
      value: -11.66462
      objectReference: {fileID: 0}
    - target: {fileID: 1598249691231917209, guid: 1183029f3e28a6b44991cd1c2d5905c0,
        type: 3}
      propertyPath: m_LocalPosition.z
      value: 25.498852
      objectReference: {fileID: 0}
    - target: {fileID: 1598249691231917209, guid: 1183029f3e28a6b44991cd1c2d5905c0,
        type: 3}
      propertyPath: m_LocalRotation.x
      value: -0
      objectReference: {fileID: 0}
    - target: {fileID: 1598249691231917209, guid: 1183029f3e28a6b44991cd1c2d5905c0,
        type: 3}
      propertyPath: m_LocalRotation.y
      value: -0
      objectReference: {fileID: 0}
    - target: {fileID: 1598249691231917209, guid: 1183029f3e28a6b44991cd1c2d5905c0,
        type: 3}
      propertyPath: m_LocalRotation.z
      value: -0
      objectReference: {fileID: 0}
    - target: {fileID: 1598249691231917209, guid: 1183029f3e28a6b44991cd1c2d5905c0,
        type: 3}
      propertyPath: m_LocalRotation.w
      value: 1
      objectReference: {fileID: 0}
    - target: {fileID: 1598249691231917209, guid: 1183029f3e28a6b44991cd1c2d5905c0,
        type: 3}
      propertyPath: m_RootOrder
      value: 1
      objectReference: {fileID: 0}
    - target: {fileID: 1598249691231917209, guid: 1183029f3e28a6b44991cd1c2d5905c0,
        type: 3}
      propertyPath: m_LocalEulerAnglesHint.x
      value: 0
      objectReference: {fileID: 0}
    - target: {fileID: 1598249691231917209, guid: 1183029f3e28a6b44991cd1c2d5905c0,
        type: 3}
      propertyPath: m_LocalEulerAnglesHint.y
      value: 0
      objectReference: {fileID: 0}
    - target: {fileID: 1598249691231917209, guid: 1183029f3e28a6b44991cd1c2d5905c0,
        type: 3}
      propertyPath: m_LocalEulerAnglesHint.z
      value: 0
      objectReference: {fileID: 0}
    - target: {fileID: 1598249691231917210, guid: 1183029f3e28a6b44991cd1c2d5905c0,
        type: 3}
      propertyPath: m_Name
      value: PauseMenu(Level)
      objectReference: {fileID: 0}
    m_RemovedComponents: []
  m_SourcePrefab: {fileID: 100100000, guid: 1183029f3e28a6b44991cd1c2d5905c0, type: 3}
--- !u!1001 &498828455
PrefabInstance:
  m_ObjectHideFlags: 0
  serializedVersion: 2
  m_Modification:
    m_TransformParent: {fileID: 0}
    m_Modifications:
    - target: {fileID: 4141257418963673419, guid: d6020f057b22f034b826b0757fb0c4c5,
        type: 3}
      propertyPath: m_Name
      value: WarpTile2 (1)
      objectReference: {fileID: 0}
    - target: {fileID: 4141257418963673431, guid: d6020f057b22f034b826b0757fb0c4c5,
        type: 3}
      propertyPath: m_LocalPosition.x
      value: 3
      objectReference: {fileID: 0}
    - target: {fileID: 4141257418963673431, guid: d6020f057b22f034b826b0757fb0c4c5,
        type: 3}
      propertyPath: m_LocalPosition.y
      value: 0.1
      objectReference: {fileID: 0}
    - target: {fileID: 4141257418963673431, guid: d6020f057b22f034b826b0757fb0c4c5,
        type: 3}
      propertyPath: m_LocalPosition.z
      value: 1
      objectReference: {fileID: 0}
    - target: {fileID: 4141257418963673431, guid: d6020f057b22f034b826b0757fb0c4c5,
        type: 3}
      propertyPath: m_LocalRotation.x
      value: 0.7071068
      objectReference: {fileID: 0}
    - target: {fileID: 4141257418963673431, guid: d6020f057b22f034b826b0757fb0c4c5,
        type: 3}
      propertyPath: m_LocalRotation.y
      value: 0
      objectReference: {fileID: 0}
    - target: {fileID: 4141257418963673431, guid: d6020f057b22f034b826b0757fb0c4c5,
        type: 3}
      propertyPath: m_LocalRotation.z
      value: 0
      objectReference: {fileID: 0}
    - target: {fileID: 4141257418963673431, guid: d6020f057b22f034b826b0757fb0c4c5,
        type: 3}
      propertyPath: m_LocalRotation.w
      value: 0.7071068
      objectReference: {fileID: 0}
    - target: {fileID: 4141257418963673431, guid: d6020f057b22f034b826b0757fb0c4c5,
        type: 3}
      propertyPath: m_RootOrder
      value: 15
      objectReference: {fileID: 0}
    - target: {fileID: 4141257418963673431, guid: d6020f057b22f034b826b0757fb0c4c5,
        type: 3}
      propertyPath: m_LocalEulerAnglesHint.x
      value: 90
      objectReference: {fileID: 0}
    - target: {fileID: 4141257418963673431, guid: d6020f057b22f034b826b0757fb0c4c5,
        type: 3}
      propertyPath: m_LocalEulerAnglesHint.y
      value: 0
      objectReference: {fileID: 0}
    - target: {fileID: 4141257418963673431, guid: d6020f057b22f034b826b0757fb0c4c5,
        type: 3}
      propertyPath: m_LocalEulerAnglesHint.z
      value: 0
      objectReference: {fileID: 0}
    m_RemovedComponents: []
  m_SourcePrefab: {fileID: 100100000, guid: d6020f057b22f034b826b0757fb0c4c5, type: 3}
--- !u!1001 &771283342
PrefabInstance:
  m_ObjectHideFlags: 0
  serializedVersion: 2
  m_Modification:
    m_TransformParent: {fileID: 0}
    m_Modifications:
    - target: {fileID: 6584504991540792911, guid: ad2b83d2c1448c940b3010f3885b8f7c,
        type: 3}
      propertyPath: m_LocalPosition.x
      value: 1
      objectReference: {fileID: 0}
    - target: {fileID: 6584504991540792911, guid: ad2b83d2c1448c940b3010f3885b8f7c,
        type: 3}
      propertyPath: m_LocalPosition.y
      value: 0.1
      objectReference: {fileID: 0}
    - target: {fileID: 6584504991540792911, guid: ad2b83d2c1448c940b3010f3885b8f7c,
        type: 3}
      propertyPath: m_LocalPosition.z
      value: 1
      objectReference: {fileID: 0}
    - target: {fileID: 6584504991540792911, guid: ad2b83d2c1448c940b3010f3885b8f7c,
        type: 3}
      propertyPath: m_LocalRotation.x
      value: 0.7071068
      objectReference: {fileID: 0}
    - target: {fileID: 6584504991540792911, guid: ad2b83d2c1448c940b3010f3885b8f7c,
        type: 3}
      propertyPath: m_LocalRotation.y
      value: -0
      objectReference: {fileID: 0}
    - target: {fileID: 6584504991540792911, guid: ad2b83d2c1448c940b3010f3885b8f7c,
        type: 3}
      propertyPath: m_LocalRotation.z
      value: -0
      objectReference: {fileID: 0}
    - target: {fileID: 6584504991540792911, guid: ad2b83d2c1448c940b3010f3885b8f7c,
        type: 3}
      propertyPath: m_LocalRotation.w
      value: 0.7071068
      objectReference: {fileID: 0}
    - target: {fileID: 6584504991540792911, guid: ad2b83d2c1448c940b3010f3885b8f7c,
        type: 3}
      propertyPath: m_RootOrder
      value: 2
      objectReference: {fileID: 0}
    - target: {fileID: 6584504991540792911, guid: ad2b83d2c1448c940b3010f3885b8f7c,
        type: 3}
      propertyPath: m_LocalEulerAnglesHint.x
      value: 90
      objectReference: {fileID: 0}
    - target: {fileID: 6584504991540792911, guid: ad2b83d2c1448c940b3010f3885b8f7c,
        type: 3}
      propertyPath: m_LocalEulerAnglesHint.y
      value: 0
      objectReference: {fileID: 0}
    - target: {fileID: 6584504991540792911, guid: ad2b83d2c1448c940b3010f3885b8f7c,
        type: 3}
      propertyPath: m_LocalEulerAnglesHint.z
      value: 0
      objectReference: {fileID: 0}
    - target: {fileID: 9105252847399057798, guid: ad2b83d2c1448c940b3010f3885b8f7c,
        type: 3}
      propertyPath: m_Name
      value: LightTile
      objectReference: {fileID: 0}
    m_RemovedComponents: []
  m_SourcePrefab: {fileID: 100100000, guid: ad2b83d2c1448c940b3010f3885b8f7c, type: 3}
--- !u!1001 &885809225
PrefabInstance:
  m_ObjectHideFlags: 0
  serializedVersion: 2
  m_Modification:
    m_TransformParent: {fileID: 0}
    m_Modifications:
    - target: {fileID: 5752344561068337670, guid: f02be982aa9e77a4f890b7f59d920084,
        type: 3}
      propertyPath: m_LocalPosition.x
      value: 2
      objectReference: {fileID: 0}
    - target: {fileID: 5752344561068337670, guid: f02be982aa9e77a4f890b7f59d920084,
        type: 3}
      propertyPath: m_LocalPosition.y
      value: 0.1
      objectReference: {fileID: 0}
    - target: {fileID: 5752344561068337670, guid: f02be982aa9e77a4f890b7f59d920084,
        type: 3}
      propertyPath: m_LocalPosition.z
      value: 0
      objectReference: {fileID: 0}
    - target: {fileID: 5752344561068337670, guid: f02be982aa9e77a4f890b7f59d920084,
        type: 3}
      propertyPath: m_LocalRotation.x
      value: 0.7071068
      objectReference: {fileID: 0}
    - target: {fileID: 5752344561068337670, guid: f02be982aa9e77a4f890b7f59d920084,
        type: 3}
      propertyPath: m_LocalRotation.y
      value: 0
      objectReference: {fileID: 0}
    - target: {fileID: 5752344561068337670, guid: f02be982aa9e77a4f890b7f59d920084,
        type: 3}
      propertyPath: m_LocalRotation.z
      value: 0
      objectReference: {fileID: 0}
    - target: {fileID: 5752344561068337670, guid: f02be982aa9e77a4f890b7f59d920084,
        type: 3}
      propertyPath: m_LocalRotation.w
      value: 0.7071068
      objectReference: {fileID: 0}
    - target: {fileID: 5752344561068337670, guid: f02be982aa9e77a4f890b7f59d920084,
        type: 3}
      propertyPath: m_RootOrder
      value: 0
      objectReference: {fileID: 0}
    - target: {fileID: 5752344561068337670, guid: f02be982aa9e77a4f890b7f59d920084,
        type: 3}
      propertyPath: m_LocalEulerAnglesHint.x
      value: 90
      objectReference: {fileID: 0}
    - target: {fileID: 5752344561068337670, guid: f02be982aa9e77a4f890b7f59d920084,
        type: 3}
      propertyPath: m_LocalEulerAnglesHint.y
      value: 0
      objectReference: {fileID: 0}
    - target: {fileID: 5752344561068337670, guid: f02be982aa9e77a4f890b7f59d920084,
        type: 3}
      propertyPath: m_LocalEulerAnglesHint.z
      value: 0
      objectReference: {fileID: 0}
    - target: {fileID: 5752344561068337690, guid: f02be982aa9e77a4f890b7f59d920084,
        type: 3}
      propertyPath: m_Name
      value: WarpTile
      objectReference: {fileID: 0}
    m_RemovedComponents: []
  m_SourcePrefab: {fileID: 100100000, guid: f02be982aa9e77a4f890b7f59d920084, type: 3}
--- !u!1001 &1259234857
PrefabInstance:
  m_ObjectHideFlags: 0
  serializedVersion: 2
  m_Modification:
    m_TransformParent: {fileID: 0}
    m_Modifications:
    - target: {fileID: 4561058700780678279, guid: 34ddd5168afcf68489f1763d9691cb23,
        type: 3}
      propertyPath: m_Name
      value: LevelCam
      objectReference: {fileID: 0}
    - target: {fileID: 4561058700780678282, guid: 34ddd5168afcf68489f1763d9691cb23,
        type: 3}
      propertyPath: m_LocalPosition.x
      value: 3.762
      objectReference: {fileID: 0}
    - target: {fileID: 4561058700780678282, guid: 34ddd5168afcf68489f1763d9691cb23,
        type: 3}
      propertyPath: m_LocalPosition.y
      value: 7.654
      objectReference: {fileID: 0}
    - target: {fileID: 4561058700780678282, guid: 34ddd5168afcf68489f1763d9691cb23,
        type: 3}
      propertyPath: m_LocalPosition.z
      value: -6.318
      objectReference: {fileID: 0}
    - target: {fileID: 4561058700780678282, guid: 34ddd5168afcf68489f1763d9691cb23,
        type: 3}
      propertyPath: m_LocalRotation.x
      value: 0.3696438
      objectReference: {fileID: 0}
    - target: {fileID: 4561058700780678282, guid: 34ddd5168afcf68489f1763d9691cb23,
        type: 3}
      propertyPath: m_LocalRotation.y
      value: -0.23911758
      objectReference: {fileID: 0}
    - target: {fileID: 4561058700780678282, guid: 34ddd5168afcf68489f1763d9691cb23,
        type: 3}
      propertyPath: m_LocalRotation.z
      value: 0.099045746
      objectReference: {fileID: 0}
    - target: {fileID: 4561058700780678282, guid: 34ddd5168afcf68489f1763d9691cb23,
        type: 3}
      propertyPath: m_LocalRotation.w
      value: 0.89239913
      objectReference: {fileID: 0}
    - target: {fileID: 4561058700780678282, guid: 34ddd5168afcf68489f1763d9691cb23,
        type: 3}
      propertyPath: m_RootOrder
      value: 9
      objectReference: {fileID: 0}
    - target: {fileID: 4561058700780678282, guid: 34ddd5168afcf68489f1763d9691cb23,
        type: 3}
      propertyPath: m_LocalEulerAnglesHint.x
      value: 45
      objectReference: {fileID: 0}
    - target: {fileID: 4561058700780678282, guid: 34ddd5168afcf68489f1763d9691cb23,
        type: 3}
      propertyPath: m_LocalEulerAnglesHint.y
      value: -30
      objectReference: {fileID: 0}
    - target: {fileID: 4561058700780678282, guid: 34ddd5168afcf68489f1763d9691cb23,
        type: 3}
      propertyPath: m_LocalEulerAnglesHint.z
      value: 0
      objectReference: {fileID: 0}
    m_RemovedComponents: []
  m_SourcePrefab: {fileID: 100100000, guid: 34ddd5168afcf68489f1763d9691cb23, type: 3}
--- !u!20 &1259234858 stripped
Camera:
  m_CorrespondingSourceObject: {fileID: 4561058700780678276, guid: 34ddd5168afcf68489f1763d9691cb23,
    type: 3}
  m_PrefabInstance: {fileID: 1259234857}
  m_PrefabAsset: {fileID: 0}
--- !u!1001 &1265275222
PrefabInstance:
  m_ObjectHideFlags: 0
  serializedVersion: 2
  m_Modification:
    m_TransformParent: {fileID: 0}
    m_Modifications:
    - target: {fileID: 564438623614978557, guid: 7e9bd96c8f77a63499ea3701725360f8,
        type: 3}
      propertyPath: m_LocalPosition.x
      value: 0
      objectReference: {fileID: 0}
    - target: {fileID: 564438623614978557, guid: 7e9bd96c8f77a63499ea3701725360f8,
        type: 3}
      propertyPath: m_LocalPosition.y
      value: 0.1
      objectReference: {fileID: 0}
    - target: {fileID: 564438623614978557, guid: 7e9bd96c8f77a63499ea3701725360f8,
        type: 3}
      propertyPath: m_LocalPosition.z
      value: 1
      objectReference: {fileID: 0}
    - target: {fileID: 564438623614978557, guid: 7e9bd96c8f77a63499ea3701725360f8,
        type: 3}
      propertyPath: m_LocalRotation.x
      value: 0.7071068
      objectReference: {fileID: 0}
    - target: {fileID: 564438623614978557, guid: 7e9bd96c8f77a63499ea3701725360f8,
        type: 3}
      propertyPath: m_LocalRotation.y
      value: -0
      objectReference: {fileID: 0}
    - target: {fileID: 564438623614978557, guid: 7e9bd96c8f77a63499ea3701725360f8,
        type: 3}
      propertyPath: m_LocalRotation.z
      value: -0
      objectReference: {fileID: 0}
    - target: {fileID: 564438623614978557, guid: 7e9bd96c8f77a63499ea3701725360f8,
        type: 3}
      propertyPath: m_LocalRotation.w
      value: 0.7071068
      objectReference: {fileID: 0}
    - target: {fileID: 564438623614978557, guid: 7e9bd96c8f77a63499ea3701725360f8,
        type: 3}
      propertyPath: m_RootOrder
      value: 3
      objectReference: {fileID: 0}
    - target: {fileID: 564438623614978557, guid: 7e9bd96c8f77a63499ea3701725360f8,
        type: 3}
      propertyPath: m_LocalEulerAnglesHint.x
      value: 90
      objectReference: {fileID: 0}
    - target: {fileID: 564438623614978557, guid: 7e9bd96c8f77a63499ea3701725360f8,
        type: 3}
      propertyPath: m_LocalEulerAnglesHint.y
      value: 0
      objectReference: {fileID: 0}
    - target: {fileID: 564438623614978557, guid: 7e9bd96c8f77a63499ea3701725360f8,
        type: 3}
      propertyPath: m_LocalEulerAnglesHint.z
      value: 0
      objectReference: {fileID: 0}
    - target: {fileID: 2515769114921942580, guid: 7e9bd96c8f77a63499ea3701725360f8,
        type: 3}
      propertyPath: m_Name
      value: LightTile_Off
      objectReference: {fileID: 0}
    m_RemovedComponents: []
  m_SourcePrefab: {fileID: 100100000, guid: 7e9bd96c8f77a63499ea3701725360f8, type: 3}
--- !u!1001 &1276396721
PrefabInstance:
  m_ObjectHideFlags: 0
  serializedVersion: 2
  m_Modification:
    m_TransformParent: {fileID: 0}
    m_Modifications:
    - target: {fileID: 9212014679651428897, guid: 374c82a59268c2e43903cd82c780a890,
        type: 3}
      propertyPath: m_Name
      value: LevelPointLight (1)
      objectReference: {fileID: 0}
    - target: {fileID: 9212014679651428903, guid: 374c82a59268c2e43903cd82c780a890,
        type: 3}
      propertyPath: m_LocalPosition.x
      value: 1
      objectReference: {fileID: 0}
    - target: {fileID: 9212014679651428903, guid: 374c82a59268c2e43903cd82c780a890,
        type: 3}
      propertyPath: m_LocalPosition.y
      value: 6
      objectReference: {fileID: 0}
    - target: {fileID: 9212014679651428903, guid: 374c82a59268c2e43903cd82c780a890,
        type: 3}
      propertyPath: m_LocalPosition.z
      value: 1
      objectReference: {fileID: 0}
    - target: {fileID: 9212014679651428903, guid: 374c82a59268c2e43903cd82c780a890,
        type: 3}
      propertyPath: m_LocalRotation.x
      value: 0.7071068
      objectReference: {fileID: 0}
    - target: {fileID: 9212014679651428903, guid: 374c82a59268c2e43903cd82c780a890,
        type: 3}
      propertyPath: m_LocalRotation.y
      value: 0
      objectReference: {fileID: 0}
    - target: {fileID: 9212014679651428903, guid: 374c82a59268c2e43903cd82c780a890,
        type: 3}
      propertyPath: m_LocalRotation.z
      value: 0
      objectReference: {fileID: 0}
    - target: {fileID: 9212014679651428903, guid: 374c82a59268c2e43903cd82c780a890,
        type: 3}
      propertyPath: m_LocalRotation.w
      value: 0.7071068
      objectReference: {fileID: 0}
    - target: {fileID: 9212014679651428903, guid: 374c82a59268c2e43903cd82c780a890,
        type: 3}
      propertyPath: m_RootOrder
      value: 12
      objectReference: {fileID: 0}
    - target: {fileID: 9212014679651428903, guid: 374c82a59268c2e43903cd82c780a890,
        type: 3}
      propertyPath: m_LocalEulerAnglesHint.x
      value: 90
      objectReference: {fileID: 0}
    - target: {fileID: 9212014679651428903, guid: 374c82a59268c2e43903cd82c780a890,
        type: 3}
      propertyPath: m_LocalEulerAnglesHint.y
      value: 0
      objectReference: {fileID: 0}
    - target: {fileID: 9212014679651428903, guid: 374c82a59268c2e43903cd82c780a890,
        type: 3}
      propertyPath: m_LocalEulerAnglesHint.z
      value: 0
      objectReference: {fileID: 0}
    m_RemovedComponents: []
  m_SourcePrefab: {fileID: 100100000, guid: 374c82a59268c2e43903cd82c780a890, type: 3}
--- !u!1001 &1346125597
PrefabInstance:
  m_ObjectHideFlags: 0
  serializedVersion: 2
  m_Modification:
    m_TransformParent: {fileID: 0}
    m_Modifications:
    - target: {fileID: 8796322233993883186, guid: dfd75d804943fec4f8ad3dba644bbd54,
        type: 3}
      propertyPath: m_LocalPosition.x
      value: 4
      objectReference: {fileID: 0}
    - target: {fileID: 8796322233993883186, guid: dfd75d804943fec4f8ad3dba644bbd54,
        type: 3}
      propertyPath: m_LocalPosition.y
      value: 4
      objectReference: {fileID: 0}
    - target: {fileID: 8796322233993883186, guid: dfd75d804943fec4f8ad3dba644bbd54,
        type: 3}
      propertyPath: m_LocalPosition.z
      value: -4
      objectReference: {fileID: 0}
    - target: {fileID: 8796322233993883186, guid: dfd75d804943fec4f8ad3dba644bbd54,
        type: 3}
      propertyPath: m_LocalRotation.x
      value: -0.075646356
      objectReference: {fileID: 0}
    - target: {fileID: 8796322233993883186, guid: dfd75d804943fec4f8ad3dba644bbd54,
        type: 3}
      propertyPath: m_LocalRotation.y
      value: -0.86271536
      objectReference: {fileID: 0}
    - target: {fileID: 8796322233993883186, guid: dfd75d804943fec4f8ad3dba644bbd54,
        type: 3}
      propertyPath: m_LocalRotation.z
      value: 0.3814724
      objectReference: {fileID: 0}
    - target: {fileID: 8796322233993883186, guid: dfd75d804943fec4f8ad3dba644bbd54,
        type: 3}
      propertyPath: m_LocalRotation.w
      value: -0.32323167
      objectReference: {fileID: 0}
    - target: {fileID: 8796322233993883186, guid: dfd75d804943fec4f8ad3dba644bbd54,
        type: 3}
      propertyPath: m_RootOrder
      value: 13
      objectReference: {fileID: 0}
    - target: {fileID: 8796322233993883186, guid: dfd75d804943fec4f8ad3dba644bbd54,
        type: 3}
      propertyPath: m_LocalEulerAnglesHint.x
      value: 45
      objectReference: {fileID: 0}
    - target: {fileID: 8796322233993883186, guid: dfd75d804943fec4f8ad3dba644bbd54,
        type: 3}
      propertyPath: m_LocalEulerAnglesHint.y
      value: -225
      objectReference: {fileID: 0}
    - target: {fileID: 8796322233993883186, guid: dfd75d804943fec4f8ad3dba644bbd54,
        type: 3}
      propertyPath: m_LocalEulerAnglesHint.z
      value: -9.449
      objectReference: {fileID: 0}
    - target: {fileID: 8796322233993883196, guid: dfd75d804943fec4f8ad3dba644bbd54,
        type: 3}
      propertyPath: m_Name
      value: Light1
      objectReference: {fileID: 0}
    m_RemovedComponents: []
  m_SourcePrefab: {fileID: 100100000, guid: dfd75d804943fec4f8ad3dba644bbd54, type: 3}
--- !u!1001 &1379503279
PrefabInstance:
  m_ObjectHideFlags: 0
  serializedVersion: 2
  m_Modification:
    m_TransformParent: {fileID: 0}
    m_Modifications:
    - target: {fileID: 4694290989051062803, guid: 486df8fd84fa7a84980795de89414c45,
        type: 3}
      propertyPath: m_Name
      value: PermLightTile
      objectReference: {fileID: 0}
    - target: {fileID: 7213077298985197018, guid: 486df8fd84fa7a84980795de89414c45,
        type: 3}
      propertyPath: m_LocalPosition.x
      value: 1
      objectReference: {fileID: 0}
    - target: {fileID: 7213077298985197018, guid: 486df8fd84fa7a84980795de89414c45,
        type: 3}
      propertyPath: m_LocalPosition.y
      value: 0.1
      objectReference: {fileID: 0}
    - target: {fileID: 7213077298985197018, guid: 486df8fd84fa7a84980795de89414c45,
        type: 3}
      propertyPath: m_LocalPosition.z
      value: 0
      objectReference: {fileID: 0}
    - target: {fileID: 7213077298985197018, guid: 486df8fd84fa7a84980795de89414c45,
        type: 3}
      propertyPath: m_LocalRotation.x
      value: 0.7071068
      objectReference: {fileID: 0}
    - target: {fileID: 7213077298985197018, guid: 486df8fd84fa7a84980795de89414c45,
        type: 3}
      propertyPath: m_LocalRotation.y
      value: -0
      objectReference: {fileID: 0}
    - target: {fileID: 7213077298985197018, guid: 486df8fd84fa7a84980795de89414c45,
        type: 3}
      propertyPath: m_LocalRotation.z
      value: -0
      objectReference: {fileID: 0}
    - target: {fileID: 7213077298985197018, guid: 486df8fd84fa7a84980795de89414c45,
        type: 3}
      propertyPath: m_LocalRotation.w
      value: 0.7071068
      objectReference: {fileID: 0}
    - target: {fileID: 7213077298985197018, guid: 486df8fd84fa7a84980795de89414c45,
        type: 3}
      propertyPath: m_RootOrder
      value: 10
      objectReference: {fileID: 0}
    - target: {fileID: 7213077298985197018, guid: 486df8fd84fa7a84980795de89414c45,
        type: 3}
      propertyPath: m_LocalEulerAnglesHint.x
      value: 90
      objectReference: {fileID: 0}
    - target: {fileID: 7213077298985197018, guid: 486df8fd84fa7a84980795de89414c45,
        type: 3}
      propertyPath: m_LocalEulerAnglesHint.y
      value: 0
      objectReference: {fileID: 0}
    - target: {fileID: 7213077298985197018, guid: 486df8fd84fa7a84980795de89414c45,
        type: 3}
      propertyPath: m_LocalEulerAnglesHint.z
      value: 0
      objectReference: {fileID: 0}
    m_RemovedComponents: []
  m_SourcePrefab: {fileID: 100100000, guid: 486df8fd84fa7a84980795de89414c45, type: 3}
--- !u!1001 &1511497169
PrefabInstance:
  m_ObjectHideFlags: 0
  serializedVersion: 2
  m_Modification:
    m_TransformParent: {fileID: 0}
    m_Modifications:
    - target: {fileID: 5752344561068337670, guid: f02be982aa9e77a4f890b7f59d920084,
        type: 3}
      propertyPath: m_LocalPosition.x
      value: 2
      objectReference: {fileID: 0}
    - target: {fileID: 5752344561068337670, guid: f02be982aa9e77a4f890b7f59d920084,
        type: 3}
      propertyPath: m_LocalPosition.y
      value: 0.1
      objectReference: {fileID: 0}
    - target: {fileID: 5752344561068337670, guid: f02be982aa9e77a4f890b7f59d920084,
        type: 3}
      propertyPath: m_LocalPosition.z
      value: 1
      objectReference: {fileID: 0}
    - target: {fileID: 5752344561068337670, guid: f02be982aa9e77a4f890b7f59d920084,
        type: 3}
      propertyPath: m_LocalRotation.x
      value: 0.7071068
      objectReference: {fileID: 0}
    - target: {fileID: 5752344561068337670, guid: f02be982aa9e77a4f890b7f59d920084,
        type: 3}
      propertyPath: m_LocalRotation.y
      value: 0
      objectReference: {fileID: 0}
    - target: {fileID: 5752344561068337670, guid: f02be982aa9e77a4f890b7f59d920084,
        type: 3}
      propertyPath: m_LocalRotation.z
      value: 0
      objectReference: {fileID: 0}
    - target: {fileID: 5752344561068337670, guid: f02be982aa9e77a4f890b7f59d920084,
        type: 3}
      propertyPath: m_LocalRotation.w
      value: 0.7071068
      objectReference: {fileID: 0}
    - target: {fileID: 5752344561068337670, guid: f02be982aa9e77a4f890b7f59d920084,
        type: 3}
      propertyPath: m_RootOrder
      value: 8
      objectReference: {fileID: 0}
    - target: {fileID: 5752344561068337670, guid: f02be982aa9e77a4f890b7f59d920084,
        type: 3}
      propertyPath: m_LocalEulerAnglesHint.x
      value: 90
      objectReference: {fileID: 0}
    - target: {fileID: 5752344561068337670, guid: f02be982aa9e77a4f890b7f59d920084,
        type: 3}
      propertyPath: m_LocalEulerAnglesHint.y
      value: 0
      objectReference: {fileID: 0}
    - target: {fileID: 5752344561068337670, guid: f02be982aa9e77a4f890b7f59d920084,
        type: 3}
      propertyPath: m_LocalEulerAnglesHint.z
      value: 0
      objectReference: {fileID: 0}
    - target: {fileID: 5752344561068337690, guid: f02be982aa9e77a4f890b7f59d920084,
        type: 3}
      propertyPath: m_Name
      value: WarpTile (1)
      objectReference: {fileID: 0}
    m_RemovedComponents: []
  m_SourcePrefab: {fileID: 100100000, guid: f02be982aa9e77a4f890b7f59d920084, type: 3}
--- !u!1001 &1550412047
PrefabInstance:
  m_ObjectHideFlags: 0
  serializedVersion: 2
  m_Modification:
    m_TransformParent: {fileID: 0}
    m_Modifications:
    - target: {fileID: 4141257418963673419, guid: d6020f057b22f034b826b0757fb0c4c5,
        type: 3}
      propertyPath: m_Name
      value: WarpTile2
      objectReference: {fileID: 0}
    - target: {fileID: 4141257418963673431, guid: d6020f057b22f034b826b0757fb0c4c5,
        type: 3}
      propertyPath: m_LocalPosition.x
      value: 3
      objectReference: {fileID: 0}
    - target: {fileID: 4141257418963673431, guid: d6020f057b22f034b826b0757fb0c4c5,
        type: 3}
      propertyPath: m_LocalPosition.y
      value: 0.1
      objectReference: {fileID: 0}
    - target: {fileID: 4141257418963673431, guid: d6020f057b22f034b826b0757fb0c4c5,
        type: 3}
      propertyPath: m_LocalPosition.z
      value: 0
      objectReference: {fileID: 0}
    - target: {fileID: 4141257418963673431, guid: d6020f057b22f034b826b0757fb0c4c5,
        type: 3}
      propertyPath: m_LocalRotation.x
      value: 0.7071068
      objectReference: {fileID: 0}
    - target: {fileID: 4141257418963673431, guid: d6020f057b22f034b826b0757fb0c4c5,
        type: 3}
      propertyPath: m_LocalRotation.y
      value: 0
      objectReference: {fileID: 0}
    - target: {fileID: 4141257418963673431, guid: d6020f057b22f034b826b0757fb0c4c5,
        type: 3}
      propertyPath: m_LocalRotation.z
      value: 0
      objectReference: {fileID: 0}
    - target: {fileID: 4141257418963673431, guid: d6020f057b22f034b826b0757fb0c4c5,
        type: 3}
      propertyPath: m_LocalRotation.w
      value: 0.7071068
      objectReference: {fileID: 0}
    - target: {fileID: 4141257418963673431, guid: d6020f057b22f034b826b0757fb0c4c5,
        type: 3}
      propertyPath: m_RootOrder
      value: 14
      objectReference: {fileID: 0}
    - target: {fileID: 4141257418963673431, guid: d6020f057b22f034b826b0757fb0c4c5,
        type: 3}
      propertyPath: m_LocalEulerAnglesHint.x
      value: 90
      objectReference: {fileID: 0}
    - target: {fileID: 4141257418963673431, guid: d6020f057b22f034b826b0757fb0c4c5,
        type: 3}
      propertyPath: m_LocalEulerAnglesHint.y
      value: 0
      objectReference: {fileID: 0}
    - target: {fileID: 4141257418963673431, guid: d6020f057b22f034b826b0757fb0c4c5,
        type: 3}
      propertyPath: m_LocalEulerAnglesHint.z
      value: 0
      objectReference: {fileID: 0}
    m_RemovedComponents: []
  m_SourcePrefab: {fileID: 100100000, guid: d6020f057b22f034b826b0757fb0c4c5, type: 3}
--- !u!1001 &1726818960
PrefabInstance:
  m_ObjectHideFlags: 0
  serializedVersion: 2
  m_Modification:
    m_TransformParent: {fileID: 0}
    m_Modifications:
    - target: {fileID: 5736243087587496465, guid: cae7c21b1d7136b40a1bad25298b53b6,
        type: 3}
      propertyPath: m_Name
      value: RustTile
      objectReference: {fileID: 0}
    - target: {fileID: 8773121384582193154, guid: cae7c21b1d7136b40a1bad25298b53b6,
        type: 3}
      propertyPath: m_LocalPosition.x
      value: 0
      objectReference: {fileID: 0}
    - target: {fileID: 8773121384582193154, guid: cae7c21b1d7136b40a1bad25298b53b6,
        type: 3}
      propertyPath: m_LocalPosition.y
      value: 0
      objectReference: {fileID: 0}
    - target: {fileID: 8773121384582193154, guid: cae7c21b1d7136b40a1bad25298b53b6,
        type: 3}
      propertyPath: m_LocalPosition.z
      value: 0
      objectReference: {fileID: 0}
    - target: {fileID: 8773121384582193154, guid: cae7c21b1d7136b40a1bad25298b53b6,
        type: 3}
      propertyPath: m_LocalRotation.x
      value: 0
      objectReference: {fileID: 0}
    - target: {fileID: 8773121384582193154, guid: cae7c21b1d7136b40a1bad25298b53b6,
        type: 3}
      propertyPath: m_LocalRotation.y
      value: -0
      objectReference: {fileID: 0}
    - target: {fileID: 8773121384582193154, guid: cae7c21b1d7136b40a1bad25298b53b6,
        type: 3}
      propertyPath: m_LocalRotation.z
      value: -0
      objectReference: {fileID: 0}
    - target: {fileID: 8773121384582193154, guid: cae7c21b1d7136b40a1bad25298b53b6,
        type: 3}
      propertyPath: m_LocalRotation.w
      value: 1
      objectReference: {fileID: 0}
    - target: {fileID: 8773121384582193154, guid: cae7c21b1d7136b40a1bad25298b53b6,
        type: 3}
      propertyPath: m_RootOrder
      value: 7
      objectReference: {fileID: 0}
    - target: {fileID: 8773121384582193154, guid: cae7c21b1d7136b40a1bad25298b53b6,
        type: 3}
      propertyPath: m_LocalEulerAnglesHint.x
      value: 0
      objectReference: {fileID: 0}
    - target: {fileID: 8773121384582193154, guid: cae7c21b1d7136b40a1bad25298b53b6,
        type: 3}
      propertyPath: m_LocalEulerAnglesHint.y
      value: 0
      objectReference: {fileID: 0}
    - target: {fileID: 8773121384582193154, guid: cae7c21b1d7136b40a1bad25298b53b6,
        type: 3}
      propertyPath: m_LocalEulerAnglesHint.z
      value: 0
      objectReference: {fileID: 0}
    m_RemovedComponents: []
  m_SourcePrefab: {fileID: 100100000, guid: cae7c21b1d7136b40a1bad25298b53b6, type: 3}
--- !u!1001 &1836269887
PrefabInstance:
  m_ObjectHideFlags: 0
  serializedVersion: 2
  m_Modification:
    m_TransformParent: {fileID: 0}
    m_Modifications:
    - target: {fileID: 7580409204244449673, guid: da05ed1427e6515468be7c6337e14222,
        type: 3}
      propertyPath: m_Name
      value: Ground
      objectReference: {fileID: 0}
    - target: {fileID: 7580409204244449909, guid: da05ed1427e6515468be7c6337e14222,
        type: 3}
      propertyPath: m_LocalPosition.x
      value: 0.87
      objectReference: {fileID: 0}
    - target: {fileID: 7580409204244449909, guid: da05ed1427e6515468be7c6337e14222,
        type: 3}
      propertyPath: m_LocalPosition.y
      value: -0.1
      objectReference: {fileID: 0}
    - target: {fileID: 7580409204244449909, guid: da05ed1427e6515468be7c6337e14222,
        type: 3}
      propertyPath: m_LocalPosition.z
      value: 0
      objectReference: {fileID: 0}
    - target: {fileID: 7580409204244449909, guid: da05ed1427e6515468be7c6337e14222,
        type: 3}
      propertyPath: m_LocalRotation.x
      value: 0
      objectReference: {fileID: 0}
    - target: {fileID: 7580409204244449909, guid: da05ed1427e6515468be7c6337e14222,
        type: 3}
      propertyPath: m_LocalRotation.y
      value: 0
      objectReference: {fileID: 0}
    - target: {fileID: 7580409204244449909, guid: da05ed1427e6515468be7c6337e14222,
        type: 3}
      propertyPath: m_LocalRotation.z
      value: 0
      objectReference: {fileID: 0}
    - target: {fileID: 7580409204244449909, guid: da05ed1427e6515468be7c6337e14222,
        type: 3}
      propertyPath: m_LocalRotation.w
      value: 1
      objectReference: {fileID: 0}
    - target: {fileID: 7580409204244449909, guid: da05ed1427e6515468be7c6337e14222,
        type: 3}
      propertyPath: m_RootOrder
      value: 5
      objectReference: {fileID: 0}
    - target: {fileID: 7580409204244449909, guid: da05ed1427e6515468be7c6337e14222,
        type: 3}
      propertyPath: m_LocalEulerAnglesHint.x
      value: 0
      objectReference: {fileID: 0}
    - target: {fileID: 7580409204244449909, guid: da05ed1427e6515468be7c6337e14222,
        type: 3}
      propertyPath: m_LocalEulerAnglesHint.y
      value: 0
      objectReference: {fileID: 0}
    - target: {fileID: 7580409204244449909, guid: da05ed1427e6515468be7c6337e14222,
        type: 3}
      propertyPath: m_LocalEulerAnglesHint.z
      value: 0
      objectReference: {fileID: 0}
    m_RemovedComponents: []
  m_SourcePrefab: {fileID: 100100000, guid: da05ed1427e6515468be7c6337e14222, type: 3}
--- !u!1001 &1839356867
PrefabInstance:
  m_ObjectHideFlags: 0
  serializedVersion: 2
  m_Modification:
    m_TransformParent: {fileID: 0}
    m_Modifications:
    - target: {fileID: 2823510698637310320, guid: 282ce5fb3feaf2944ae9ea508cbf60a4,
        type: 3}
      propertyPath: m_LocalPosition.x
      value: 0
      objectReference: {fileID: 0}
    - target: {fileID: 2823510698637310320, guid: 282ce5fb3feaf2944ae9ea508cbf60a4,
        type: 3}
      propertyPath: m_LocalPosition.y
      value: 0.6
      objectReference: {fileID: 0}
    - target: {fileID: 2823510698637310320, guid: 282ce5fb3feaf2944ae9ea508cbf60a4,
        type: 3}
      propertyPath: m_LocalPosition.z
      value: 0
      objectReference: {fileID: 0}
    - target: {fileID: 2823510698637310320, guid: 282ce5fb3feaf2944ae9ea508cbf60a4,
        type: 3}
      propertyPath: m_LocalRotation.x
      value: 0
      objectReference: {fileID: 0}
    - target: {fileID: 2823510698637310320, guid: 282ce5fb3feaf2944ae9ea508cbf60a4,
        type: 3}
      propertyPath: m_LocalRotation.y
      value: 0
      objectReference: {fileID: 0}
    - target: {fileID: 2823510698637310320, guid: 282ce5fb3feaf2944ae9ea508cbf60a4,
        type: 3}
      propertyPath: m_LocalRotation.z
      value: 0
      objectReference: {fileID: 0}
    - target: {fileID: 2823510698637310320, guid: 282ce5fb3feaf2944ae9ea508cbf60a4,
        type: 3}
      propertyPath: m_LocalRotation.w
      value: 1
      objectReference: {fileID: 0}
    - target: {fileID: 2823510698637310320, guid: 282ce5fb3feaf2944ae9ea508cbf60a4,
        type: 3}
      propertyPath: m_RootOrder
      value: 6
      objectReference: {fileID: 0}
    - target: {fileID: 2823510698637310320, guid: 282ce5fb3feaf2944ae9ea508cbf60a4,
        type: 3}
      propertyPath: m_LocalEulerAnglesHint.x
      value: 0
      objectReference: {fileID: 0}
    - target: {fileID: 2823510698637310320, guid: 282ce5fb3feaf2944ae9ea508cbf60a4,
        type: 3}
      propertyPath: m_LocalEulerAnglesHint.y
      value: 0
      objectReference: {fileID: 0}
    - target: {fileID: 2823510698637310320, guid: 282ce5fb3feaf2944ae9ea508cbf60a4,
        type: 3}
      propertyPath: m_LocalEulerAnglesHint.z
      value: 0
      objectReference: {fileID: 0}
    - target: {fileID: 2823510698637310321, guid: 282ce5fb3feaf2944ae9ea508cbf60a4,
        type: 3}
      propertyPath: m_Name
      value: Block
      objectReference: {fileID: 0}
    m_RemovedComponents: []
  m_SourcePrefab: {fileID: 100100000, guid: 282ce5fb3feaf2944ae9ea508cbf60a4, type: 3}
--- !u!1001 &1956174388
PrefabInstance:
  m_ObjectHideFlags: 0
  serializedVersion: 2
  m_Modification:
    m_TransformParent: {fileID: 0}
    m_Modifications:
    - target: {fileID: 182338538, guid: ef61ee152f3350141a84faf128e49257, type: 3}
      propertyPath: m_AnchoredPosition.y
      value: 51.965454
      objectReference: {fileID: 0}
    - target: {fileID: 788916636515457149, guid: ef61ee152f3350141a84faf128e49257,
        type: 3}
      propertyPath: m_AnchoredPosition.y
      value: 103.20001
      objectReference: {fileID: 0}
    - target: {fileID: 3903874088357143530, guid: ef61ee152f3350141a84faf128e49257,
        type: 3}
      propertyPath: m_Camera
      value: 
      objectReference: {fileID: 1259234858}
    - target: {fileID: 5039318907875749092, guid: ef61ee152f3350141a84faf128e49257,
        type: 3}
      propertyPath: m_LocalPosition.x
      value: -12.443224
      objectReference: {fileID: 0}
    - target: {fileID: 5039318907875749092, guid: ef61ee152f3350141a84faf128e49257,
        type: 3}
      propertyPath: m_LocalPosition.y
      value: -11.66462
      objectReference: {fileID: 0}
    - target: {fileID: 5039318907875749092, guid: ef61ee152f3350141a84faf128e49257,
        type: 3}
      propertyPath: m_LocalPosition.z
      value: 25.498852
      objectReference: {fileID: 0}
    - target: {fileID: 5039318907875749092, guid: ef61ee152f3350141a84faf128e49257,
        type: 3}
      propertyPath: m_LocalRotation.x
      value: 0
      objectReference: {fileID: 0}
    - target: {fileID: 5039318907875749092, guid: ef61ee152f3350141a84faf128e49257,
        type: 3}
      propertyPath: m_LocalRotation.y
      value: 0
      objectReference: {fileID: 0}
    - target: {fileID: 5039318907875749092, guid: ef61ee152f3350141a84faf128e49257,
        type: 3}
      propertyPath: m_LocalRotation.z
      value: 0
      objectReference: {fileID: 0}
    - target: {fileID: 5039318907875749092, guid: ef61ee152f3350141a84faf128e49257,
        type: 3}
      propertyPath: m_LocalRotation.w
      value: 1
      objectReference: {fileID: 0}
    - target: {fileID: 5039318907875749092, guid: ef61ee152f3350141a84faf128e49257,
        type: 3}
      propertyPath: m_RootOrder
      value: 4
      objectReference: {fileID: 0}
    - target: {fileID: 5039318907875749092, guid: ef61ee152f3350141a84faf128e49257,
        type: 3}
      propertyPath: m_LocalEulerAnglesHint.x
      value: 0
      objectReference: {fileID: 0}
    - target: {fileID: 5039318907875749092, guid: ef61ee152f3350141a84faf128e49257,
        type: 3}
      propertyPath: m_LocalEulerAnglesHint.y
      value: 0
      objectReference: {fileID: 0}
    - target: {fileID: 5039318907875749092, guid: ef61ee152f3350141a84faf128e49257,
        type: 3}
      propertyPath: m_LocalEulerAnglesHint.z
      value: 0
      objectReference: {fileID: 0}
    - target: {fileID: 5039318907875749093, guid: ef61ee152f3350141a84faf128e49257,
        type: 3}
      propertyPath: m_Name
      value: GameUI
      objectReference: {fileID: 0}
    m_RemovedComponents: []
  m_SourcePrefab: {fileID: 100100000, guid: ef61ee152f3350141a84faf128e49257, type: 3}
--- !u!1001 &1962017724
PrefabInstance:
  m_ObjectHideFlags: 0
  serializedVersion: 2
  m_Modification:
    m_TransformParent: {fileID: 0}
    m_Modifications:
    - target: {fileID: 6913757253360990861, guid: 84d5e828f9dc3094688d9ba14a0e6681,
        type: 3}
      propertyPath: m_Name
      value: Light2
      objectReference: {fileID: 0}
    - target: {fileID: 6913757253360990863, guid: 84d5e828f9dc3094688d9ba14a0e6681,
        type: 3}
      propertyPath: m_LocalPosition.x
      value: 3
      objectReference: {fileID: 0}
    - target: {fileID: 6913757253360990863, guid: 84d5e828f9dc3094688d9ba14a0e6681,
        type: 3}
      propertyPath: m_LocalPosition.y
      value: 3
      objectReference: {fileID: 0}
    - target: {fileID: 6913757253360990863, guid: 84d5e828f9dc3094688d9ba14a0e6681,
        type: 3}
      propertyPath: m_LocalPosition.z
      value: -3
      objectReference: {fileID: 0}
    - target: {fileID: 6913757253360990863, guid: 84d5e828f9dc3094688d9ba14a0e6681,
        type: 3}
      propertyPath: m_LocalRotation.x
      value: 0.33716407
      objectReference: {fileID: 0}
    - target: {fileID: 6913757253360990863, guid: 84d5e828f9dc3094688d9ba14a0e6681,
        type: 3}
      propertyPath: m_LocalRotation.y
      value: -0.3692159
      objectReference: {fileID: 0}
    - target: {fileID: 6913757253360990863, guid: 84d5e828f9dc3094688d9ba14a0e6681,
        type: 3}
      propertyPath: m_LocalRotation.z
      value: 0.18498601
      objectReference: {fileID: 0}
    - target: {fileID: 6913757253360990863, guid: 84d5e828f9dc3094688d9ba14a0e6681,
        type: 3}
      propertyPath: m_LocalRotation.w
      value: 0.8460379
      objectReference: {fileID: 0}
    - target: {fileID: 6913757253360990863, guid: 84d5e828f9dc3094688d9ba14a0e6681,
        type: 3}
      propertyPath: m_RootOrder
      value: 11
      objectReference: {fileID: 0}
    - target: {fileID: 6913757253360990863, guid: 84d5e828f9dc3094688d9ba14a0e6681,
        type: 3}
      propertyPath: m_LocalEulerAnglesHint.x
      value: 45
      objectReference: {fileID: 0}
    - target: {fileID: 6913757253360990863, guid: 84d5e828f9dc3094688d9ba14a0e6681,
        type: 3}
      propertyPath: m_LocalEulerAnglesHint.y
      value: -45
      objectReference: {fileID: 0}
    - target: {fileID: 6913757253360990863, guid: 84d5e828f9dc3094688d9ba14a0e6681,
        type: 3}
      propertyPath: m_LocalEulerAnglesHint.z
      value: 5.196
      objectReference: {fileID: 0}
    m_RemovedComponents: []
  m_SourcePrefab: {fileID: 100100000, guid: 84d5e828f9dc3094688d9ba14a0e6681, type: 3}
