%YAML 1.1
%TAG !u! tag:unity3d.com,2011:
--- !u!29 &1
OcclusionCullingSettings:
  m_ObjectHideFlags: 0
  serializedVersion: 2
  m_OcclusionBakeSettings:
    smallestOccluder: 5
    smallestHole: 0.25
    backfaceThreshold: 100
  m_SceneGUID: 00000000000000000000000000000000
  m_OcclusionCullingData: {fileID: 0}
--- !u!104 &2
RenderSettings:
  m_ObjectHideFlags: 0
  serializedVersion: 9
  m_Fog: 0
  m_FogColor: {r: 0.5, g: 0.5, b: 0.5, a: 1}
  m_FogMode: 3
  m_FogDensity: 0.01
  m_LinearFogStart: 0
  m_LinearFogEnd: 300
  m_AmbientSkyColor: {r: 0.212, g: 0.227, b: 0.259, a: 1}
  m_AmbientEquatorColor: {r: 0.114, g: 0.125, b: 0.133, a: 1}
  m_AmbientGroundColor: {r: 0.047, g: 0.043, b: 0.035, a: 1}
  m_AmbientIntensity: 1
  m_AmbientMode: 0
  m_SubtractiveShadowColor: {r: 0.42, g: 0.478, b: 0.627, a: 1}
  m_SkyboxMaterial: {fileID: 10304, guid: 0000000000000000f000000000000000, type: 0}
  m_HaloStrength: 0.5
  m_FlareStrength: 1
  m_FlareFadeSpeed: 3
  m_HaloTexture: {fileID: 0}
  m_SpotCookie: {fileID: 10001, guid: 0000000000000000e000000000000000, type: 0}
  m_DefaultReflectionMode: 0
  m_DefaultReflectionResolution: 128
  m_ReflectionBounces: 1
  m_ReflectionIntensity: 1
  m_CustomReflection: {fileID: 0}
  m_Sun: {fileID: 0}
  m_IndirectSpecularColor: {r: 0, g: 0, b: 0, a: 1}
  m_UseRadianceAmbientProbe: 0
--- !u!157 &3
LightmapSettings:
  m_ObjectHideFlags: 0
  serializedVersion: 11
  m_GIWorkflowMode: 1
  m_GISettings:
    serializedVersion: 2
    m_BounceScale: 1
    m_IndirectOutputScale: 1
    m_AlbedoBoost: 1
    m_EnvironmentLightingMode: 0
    m_EnableBakedLightmaps: 1
    m_EnableRealtimeLightmaps: 0
  m_LightmapEditorSettings:
    serializedVersion: 12
    m_Resolution: 2
    m_BakeResolution: 40
    m_AtlasSize: 1024
    m_AO: 0
    m_AOMaxDistance: 1
    m_CompAOExponent: 1
    m_CompAOExponentDirect: 0
    m_ExtractAmbientOcclusion: 0
    m_Padding: 2
    m_LightmapParameters: {fileID: 0}
    m_LightmapsBakeMode: 1
    m_TextureCompression: 1
    m_FinalGather: 0
    m_FinalGatherFiltering: 1
    m_FinalGatherRayCount: 256
    m_ReflectionCompression: 2
    m_MixedBakeMode: 2
    m_BakeBackend: 1
    m_PVRSampling: 1
    m_PVRDirectSampleCount: 32
    m_PVRSampleCount: 512
    m_PVRBounces: 2
    m_PVREnvironmentSampleCount: 256
    m_PVREnvironmentReferencePointCount: 2048
    m_PVRFilteringMode: 1
    m_PVRDenoiserTypeDirect: 1
    m_PVRDenoiserTypeIndirect: 1
    m_PVRDenoiserTypeAO: 1
    m_PVRFilterTypeDirect: 0
    m_PVRFilterTypeIndirect: 0
    m_PVRFilterTypeAO: 0
    m_PVREnvironmentMIS: 1
    m_PVRCulling: 1
    m_PVRFilteringGaussRadiusDirect: 1
    m_PVRFilteringGaussRadiusIndirect: 5
    m_PVRFilteringGaussRadiusAO: 2
    m_PVRFilteringAtrousPositionSigmaDirect: 0.5
    m_PVRFilteringAtrousPositionSigmaIndirect: 2
    m_PVRFilteringAtrousPositionSigmaAO: 1
    m_ExportTrainingData: 0
    m_TrainingDataDestination: TrainingData
    m_LightProbeSampleCountMultiplier: 4
  m_LightingDataAsset: {fileID: 0}
  m_UseShadowmask: 1
--- !u!196 &4
NavMeshSettings:
  serializedVersion: 2
  m_ObjectHideFlags: 0
  m_BuildSettings:
    serializedVersion: 2
    agentTypeID: 0
    agentRadius: 0.5
    agentHeight: 2
    agentSlope: 45
    agentClimb: 0.4
    ledgeDropHeight: 0
    maxJumpAcrossDistance: 0
    minRegionArea: 2
    manualCellSize: 0
    cellSize: 0.16666667
    manualTileSize: 0
    tileSize: 256
    accuratePlacement: 0
    debug:
      m_Flags: 0
  m_NavMeshData: {fileID: 0}
--- !u!1 &10918724 stripped
GameObject:
  m_CorrespondingSourceObject: {fileID: 4561058700780678279, guid: 34ddd5168afcf68489f1763d9691cb23,
    type: 3}
  m_PrefabInstance: {fileID: 844414450}
  m_PrefabAsset: {fileID: 0}
--- !u!20 &10918725 stripped
Camera:
  m_CorrespondingSourceObject: {fileID: 4561058700780678276, guid: 34ddd5168afcf68489f1763d9691cb23,
    type: 3}
  m_PrefabInstance: {fileID: 844414450}
  m_PrefabAsset: {fileID: 0}
--- !u!1001 &17919749
PrefabInstance:
  m_ObjectHideFlags: 0
  serializedVersion: 2
  m_Modification:
    m_TransformParent: {fileID: 0}
    m_Modifications:
    - target: {fileID: 7139075547087454372, guid: 94a9efdef054d66428a6a4b1f66bf1b9,
        type: 3}
      propertyPath: m_LocalPosition.x
      value: 1
      objectReference: {fileID: 0}
    - target: {fileID: 7139075547087454372, guid: 94a9efdef054d66428a6a4b1f66bf1b9,
        type: 3}
      propertyPath: m_LocalPosition.y
      value: 0.1
      objectReference: {fileID: 0}
    - target: {fileID: 7139075547087454372, guid: 94a9efdef054d66428a6a4b1f66bf1b9,
        type: 3}
      propertyPath: m_LocalPosition.z
      value: -1
      objectReference: {fileID: 0}
    - target: {fileID: 7139075547087454372, guid: 94a9efdef054d66428a6a4b1f66bf1b9,
        type: 3}
      propertyPath: m_LocalRotation.x
      value: 0.7071068
      objectReference: {fileID: 0}
    - target: {fileID: 7139075547087454372, guid: 94a9efdef054d66428a6a4b1f66bf1b9,
        type: 3}
      propertyPath: m_LocalRotation.y
      value: 0
      objectReference: {fileID: 0}
    - target: {fileID: 7139075547087454372, guid: 94a9efdef054d66428a6a4b1f66bf1b9,
        type: 3}
      propertyPath: m_LocalRotation.z
      value: 0
      objectReference: {fileID: 0}
    - target: {fileID: 7139075547087454372, guid: 94a9efdef054d66428a6a4b1f66bf1b9,
        type: 3}
      propertyPath: m_LocalRotation.w
      value: 0.7071068
      objectReference: {fileID: 0}
    - target: {fileID: 7139075547087454372, guid: 94a9efdef054d66428a6a4b1f66bf1b9,
        type: 3}
      propertyPath: m_RootOrder
      value: 1
      objectReference: {fileID: 0}
    - target: {fileID: 7139075547087454372, guid: 94a9efdef054d66428a6a4b1f66bf1b9,
        type: 3}
      propertyPath: m_LocalEulerAnglesHint.x
      value: 90
      objectReference: {fileID: 0}
    - target: {fileID: 7139075547087454372, guid: 94a9efdef054d66428a6a4b1f66bf1b9,
        type: 3}
      propertyPath: m_LocalEulerAnglesHint.y
      value: 0
      objectReference: {fileID: 0}
    - target: {fileID: 7139075547087454372, guid: 94a9efdef054d66428a6a4b1f66bf1b9,
        type: 3}
      propertyPath: m_LocalEulerAnglesHint.z
      value: 0
      objectReference: {fileID: 0}
    - target: {fileID: 7139075547087454392, guid: 94a9efdef054d66428a6a4b1f66bf1b9,
        type: 3}
      propertyPath: m_Name
      value: Tile (8)
      objectReference: {fileID: 0}
    m_RemovedComponents: []
  m_SourcePrefab: {fileID: 100100000, guid: 94a9efdef054d66428a6a4b1f66bf1b9, type: 3}
--- !u!1 &180771624 stripped
GameObject:
  m_CorrespondingSourceObject: {fileID: 2026826286342149550, guid: ddb132414acfcaf4fb8ce9e7cc11f926,
    type: 3}
  m_PrefabInstance: {fileID: 1441533315}
  m_PrefabAsset: {fileID: 0}
--- !u!1001 &379647195
PrefabInstance:
  m_ObjectHideFlags: 0
  serializedVersion: 2
  m_Modification:
    m_TransformParent: {fileID: 0}
    m_Modifications:
    - target: {fileID: 7139075547087454372, guid: 94a9efdef054d66428a6a4b1f66bf1b9,
        type: 3}
      propertyPath: m_LocalPosition.x
      value: -1
      objectReference: {fileID: 0}
    - target: {fileID: 7139075547087454372, guid: 94a9efdef054d66428a6a4b1f66bf1b9,
        type: 3}
      propertyPath: m_LocalPosition.y
      value: 0.1
      objectReference: {fileID: 0}
    - target: {fileID: 7139075547087454372, guid: 94a9efdef054d66428a6a4b1f66bf1b9,
        type: 3}
      propertyPath: m_LocalPosition.z
      value: 0
      objectReference: {fileID: 0}
    - target: {fileID: 7139075547087454372, guid: 94a9efdef054d66428a6a4b1f66bf1b9,
        type: 3}
      propertyPath: m_LocalRotation.x
      value: 0.7071068
      objectReference: {fileID: 0}
    - target: {fileID: 7139075547087454372, guid: 94a9efdef054d66428a6a4b1f66bf1b9,
        type: 3}
      propertyPath: m_LocalRotation.y
      value: 0
      objectReference: {fileID: 0}
    - target: {fileID: 7139075547087454372, guid: 94a9efdef054d66428a6a4b1f66bf1b9,
        type: 3}
      propertyPath: m_LocalRotation.z
      value: 0
      objectReference: {fileID: 0}
    - target: {fileID: 7139075547087454372, guid: 94a9efdef054d66428a6a4b1f66bf1b9,
        type: 3}
      propertyPath: m_LocalRotation.w
      value: 0.7071068
      objectReference: {fileID: 0}
    - target: {fileID: 7139075547087454372, guid: 94a9efdef054d66428a6a4b1f66bf1b9,
        type: 3}
      propertyPath: m_RootOrder
      value: 8
      objectReference: {fileID: 0}
    - target: {fileID: 7139075547087454372, guid: 94a9efdef054d66428a6a4b1f66bf1b9,
        type: 3}
      propertyPath: m_LocalEulerAnglesHint.x
      value: 90
      objectReference: {fileID: 0}
    - target: {fileID: 7139075547087454372, guid: 94a9efdef054d66428a6a4b1f66bf1b9,
        type: 3}
      propertyPath: m_LocalEulerAnglesHint.y
      value: 0
      objectReference: {fileID: 0}
    - target: {fileID: 7139075547087454372, guid: 94a9efdef054d66428a6a4b1f66bf1b9,
        type: 3}
      propertyPath: m_LocalEulerAnglesHint.z
      value: 0
      objectReference: {fileID: 0}
    - target: {fileID: 7139075547087454392, guid: 94a9efdef054d66428a6a4b1f66bf1b9,
        type: 3}
      propertyPath: m_Name
      value: Tile (3)
      objectReference: {fileID: 0}
    m_RemovedComponents: []
  m_SourcePrefab: {fileID: 100100000, guid: 94a9efdef054d66428a6a4b1f66bf1b9, type: 3}
--- !u!1001 &427834920
PrefabInstance:
  m_ObjectHideFlags: 0
  serializedVersion: 2
  m_Modification:
    m_TransformParent: {fileID: 0}
    m_Modifications:
    - target: {fileID: 7139075547087454372, guid: 94a9efdef054d66428a6a4b1f66bf1b9,
        type: 3}
      propertyPath: m_LocalPosition.x
      value: 1
      objectReference: {fileID: 0}
    - target: {fileID: 7139075547087454372, guid: 94a9efdef054d66428a6a4b1f66bf1b9,
        type: 3}
      propertyPath: m_LocalPosition.y
      value: 0.1
      objectReference: {fileID: 0}
    - target: {fileID: 7139075547087454372, guid: 94a9efdef054d66428a6a4b1f66bf1b9,
        type: 3}
      propertyPath: m_LocalPosition.z
      value: -2
      objectReference: {fileID: 0}
    - target: {fileID: 7139075547087454372, guid: 94a9efdef054d66428a6a4b1f66bf1b9,
        type: 3}
      propertyPath: m_LocalRotation.x
      value: 0.7071068
      objectReference: {fileID: 0}
    - target: {fileID: 7139075547087454372, guid: 94a9efdef054d66428a6a4b1f66bf1b9,
        type: 3}
      propertyPath: m_LocalRotation.y
      value: 0
      objectReference: {fileID: 0}
    - target: {fileID: 7139075547087454372, guid: 94a9efdef054d66428a6a4b1f66bf1b9,
        type: 3}
      propertyPath: m_LocalRotation.z
      value: 0
      objectReference: {fileID: 0}
    - target: {fileID: 7139075547087454372, guid: 94a9efdef054d66428a6a4b1f66bf1b9,
        type: 3}
      propertyPath: m_LocalRotation.w
      value: 0.7071068
      objectReference: {fileID: 0}
    - target: {fileID: 7139075547087454372, guid: 94a9efdef054d66428a6a4b1f66bf1b9,
        type: 3}
      propertyPath: m_RootOrder
      value: 2
      objectReference: {fileID: 0}
    - target: {fileID: 7139075547087454372, guid: 94a9efdef054d66428a6a4b1f66bf1b9,
        type: 3}
      propertyPath: m_LocalEulerAnglesHint.x
      value: 90
      objectReference: {fileID: 0}
    - target: {fileID: 7139075547087454372, guid: 94a9efdef054d66428a6a4b1f66bf1b9,
        type: 3}
      propertyPath: m_LocalEulerAnglesHint.y
      value: 0
      objectReference: {fileID: 0}
    - target: {fileID: 7139075547087454372, guid: 94a9efdef054d66428a6a4b1f66bf1b9,
        type: 3}
      propertyPath: m_LocalEulerAnglesHint.z
      value: 0
      objectReference: {fileID: 0}
    - target: {fileID: 7139075547087454392, guid: 94a9efdef054d66428a6a4b1f66bf1b9,
        type: 3}
      propertyPath: m_Name
      value: Tile (4)
      objectReference: {fileID: 0}
    m_RemovedComponents: []
  m_SourcePrefab: {fileID: 100100000, guid: 94a9efdef054d66428a6a4b1f66bf1b9, type: 3}
--- !u!1001 &606785013
PrefabInstance:
  m_ObjectHideFlags: 0
  serializedVersion: 2
  m_Modification:
    m_TransformParent: {fileID: 0}
    m_Modifications:
    - target: {fileID: 625092914130961800, guid: ef61ee152f3350141a84faf128e49257,
        type: 3}
      propertyPath: m_IsActive
      value: 1
      objectReference: {fileID: 0}
    - target: {fileID: 2489926760398579410, guid: ef61ee152f3350141a84faf128e49257,
        type: 3}
      propertyPath: m_IsActive
      value: 1
      objectReference: {fileID: 0}
    - target: {fileID: 4179457318025417561, guid: ef61ee152f3350141a84faf128e49257,
        type: 3}
      propertyPath: m_AnchoredPosition.x
      value: -97.400024
      objectReference: {fileID: 0}
    - target: {fileID: 4179457318025417561, guid: ef61ee152f3350141a84faf128e49257,
        type: 3}
      propertyPath: m_AnchoredPosition.y
      value: 26.799988
      objectReference: {fileID: 0}
    - target: {fileID: 4206717193512407031, guid: ef61ee152f3350141a84faf128e49257,
        type: 3}
      propertyPath: m_Name
      value: GameUI
      objectReference: {fileID: 0}
    - target: {fileID: 4206717193512407031, guid: ef61ee152f3350141a84faf128e49257,
        type: 3}
      propertyPath: m_IsActive
      value: 1
      objectReference: {fileID: 0}
    - target: {fileID: 4544426546600153460, guid: ef61ee152f3350141a84faf128e49257,
        type: 3}
      propertyPath: m_AnchoredPosition.x
      value: 80.900024
      objectReference: {fileID: 0}
    - target: {fileID: 4544426546600153460, guid: ef61ee152f3350141a84faf128e49257,
        type: 3}
      propertyPath: m_AnchoredPosition.y
      value: -86.899994
      objectReference: {fileID: 0}
    - target: {fileID: 6370292743099782643, guid: ef61ee152f3350141a84faf128e49257,
        type: 3}
      propertyPath: m_Camera
      value: 
      objectReference: {fileID: 10918725}
    - target: {fileID: 6501479465903830038, guid: ef61ee152f3350141a84faf128e49257,
        type: 3}
      propertyPath: block
      value: 
      objectReference: {fileID: 180771624}
    - target: {fileID: 6889806095404362964, guid: ef61ee152f3350141a84faf128e49257,
        type: 3}
      propertyPath: block
      value: 
      objectReference: {fileID: 0}
    - target: {fileID: 7257621388825030244, guid: ef61ee152f3350141a84faf128e49257,
        type: 3}
      propertyPath: m_AnchoredPosition.x
      value: 97.400024
      objectReference: {fileID: 0}
    - target: {fileID: 7257621388825030244, guid: ef61ee152f3350141a84faf128e49257,
        type: 3}
      propertyPath: m_AnchoredPosition.y
      value: 26.799988
      objectReference: {fileID: 0}
    - target: {fileID: 7632187149328906085, guid: ef61ee152f3350141a84faf128e49257,
        type: 3}
      propertyPath: m_OnClick.m_PersistentCalls.m_Calls.Array.data[0].m_Arguments.m_IntArgument
      value: 4
      objectReference: {fileID: 0}
    - target: {fileID: 8201545837958992430, guid: ef61ee152f3350141a84faf128e49257,
        type: 3}
      propertyPath: m_LocalPosition.x
      value: 0
      objectReference: {fileID: 0}
    - target: {fileID: 8201545837958992430, guid: ef61ee152f3350141a84faf128e49257,
        type: 3}
      propertyPath: m_LocalPosition.y
      value: 0
      objectReference: {fileID: 0}
    - target: {fileID: 8201545837958992430, guid: ef61ee152f3350141a84faf128e49257,
        type: 3}
      propertyPath: m_LocalPosition.z
      value: 0
      objectReference: {fileID: 0}
    - target: {fileID: 8201545837958992430, guid: ef61ee152f3350141a84faf128e49257,
        type: 3}
      propertyPath: m_LocalRotation.x
      value: 0
      objectReference: {fileID: 0}
    - target: {fileID: 8201545837958992430, guid: ef61ee152f3350141a84faf128e49257,
        type: 3}
      propertyPath: m_LocalRotation.y
      value: 0
      objectReference: {fileID: 0}
    - target: {fileID: 8201545837958992430, guid: ef61ee152f3350141a84faf128e49257,
        type: 3}
      propertyPath: m_LocalRotation.z
      value: 0
      objectReference: {fileID: 0}
    - target: {fileID: 8201545837958992430, guid: ef61ee152f3350141a84faf128e49257,
        type: 3}
      propertyPath: m_LocalRotation.w
      value: 1
      objectReference: {fileID: 0}
    - target: {fileID: 8201545837958992430, guid: ef61ee152f3350141a84faf128e49257,
        type: 3}
      propertyPath: m_RootOrder
      value: 11
      objectReference: {fileID: 0}
    - target: {fileID: 8201545837958992430, guid: ef61ee152f3350141a84faf128e49257,
        type: 3}
      propertyPath: m_LocalEulerAnglesHint.x
      value: 0
      objectReference: {fileID: 0}
    - target: {fileID: 8201545837958992430, guid: ef61ee152f3350141a84faf128e49257,
        type: 3}
      propertyPath: m_LocalEulerAnglesHint.y
      value: 0
      objectReference: {fileID: 0}
    - target: {fileID: 8201545837958992430, guid: ef61ee152f3350141a84faf128e49257,
        type: 3}
      propertyPath: m_LocalEulerAnglesHint.z
      value: 0
      objectReference: {fileID: 0}
    - target: {fileID: 8201545837958992430, guid: ef61ee152f3350141a84faf128e49257,
        type: 3}
      propertyPath: m_AnchoredPosition.x
      value: 0
      objectReference: {fileID: 0}
    - target: {fileID: 8201545837958992430, guid: ef61ee152f3350141a84faf128e49257,
        type: 3}
      propertyPath: m_AnchoredPosition.y
      value: 0
      objectReference: {fileID: 0}
    - target: {fileID: 8201545837958992430, guid: ef61ee152f3350141a84faf128e49257,
        type: 3}
      propertyPath: m_SizeDelta.x
      value: 0
      objectReference: {fileID: 0}
    - target: {fileID: 8201545837958992430, guid: ef61ee152f3350141a84faf128e49257,
        type: 3}
      propertyPath: m_SizeDelta.y
      value: 0
      objectReference: {fileID: 0}
    - target: {fileID: 8201545837958992430, guid: ef61ee152f3350141a84faf128e49257,
        type: 3}
      propertyPath: m_AnchorMin.x
      value: 0
      objectReference: {fileID: 0}
    - target: {fileID: 8201545837958992430, guid: ef61ee152f3350141a84faf128e49257,
        type: 3}
      propertyPath: m_AnchorMin.y
      value: 0
      objectReference: {fileID: 0}
    - target: {fileID: 8201545837958992430, guid: ef61ee152f3350141a84faf128e49257,
        type: 3}
      propertyPath: m_AnchorMax.x
      value: 0
      objectReference: {fileID: 0}
    - target: {fileID: 8201545837958992430, guid: ef61ee152f3350141a84faf128e49257,
        type: 3}
      propertyPath: m_AnchorMax.y
      value: 0
      objectReference: {fileID: 0}
    - target: {fileID: 8201545837958992430, guid: ef61ee152f3350141a84faf128e49257,
        type: 3}
      propertyPath: m_Pivot.x
      value: 0
      objectReference: {fileID: 0}
    - target: {fileID: 8201545837958992430, guid: ef61ee152f3350141a84faf128e49257,
        type: 3}
      propertyPath: m_Pivot.y
      value: 0
      objectReference: {fileID: 0}
    m_RemovedComponents:
    - {fileID: 6889806095404362964, guid: ef61ee152f3350141a84faf128e49257, type: 3}
  m_SourcePrefab: {fileID: 100100000, guid: ef61ee152f3350141a84faf128e49257, type: 3}
--- !u!1 &637969957
GameObject:
  m_ObjectHideFlags: 0
  m_CorrespondingSourceObject: {fileID: 0}
  m_PrefabInstance: {fileID: 0}
  m_PrefabAsset: {fileID: 0}
  serializedVersion: 6
  m_Component:
  - component: {fileID: 637969960}
  - component: {fileID: 637969959}
  - component: {fileID: 637969958}
  m_Layer: 0
  m_Name: EventSystem
  m_TagString: Untagged
  m_Icon: {fileID: 0}
  m_NavMeshLayer: 0
  m_StaticEditorFlags: 0
  m_IsActive: 1
--- !u!114 &637969958
MonoBehaviour:
  m_ObjectHideFlags: 0
  m_CorrespondingSourceObject: {fileID: 0}
  m_PrefabInstance: {fileID: 0}
  m_PrefabAsset: {fileID: 0}
  m_GameObject: {fileID: 637969957}
  m_Enabled: 1
  m_EditorHideFlags: 0
  m_Script: {fileID: 11500000, guid: 4f231c4fb786f3946a6b90b886c48677, type: 3}
  m_Name: 
  m_EditorClassIdentifier: 
  m_HorizontalAxis: Horizontal
  m_VerticalAxis: Vertical
  m_SubmitButton: Submit
  m_CancelButton: Cancel
  m_InputActionsPerSecond: 10
  m_RepeatDelay: 0.5
  m_ForceModuleActive: 0
--- !u!114 &637969959
MonoBehaviour:
  m_ObjectHideFlags: 0
  m_CorrespondingSourceObject: {fileID: 0}
  m_PrefabInstance: {fileID: 0}
  m_PrefabAsset: {fileID: 0}
  m_GameObject: {fileID: 637969957}
  m_Enabled: 1
  m_EditorHideFlags: 0
  m_Script: {fileID: 11500000, guid: 76c392e42b5098c458856cdf6ecaaaa1, type: 3}
  m_Name: 
  m_EditorClassIdentifier: 
  m_FirstSelected: {fileID: 0}
  m_sendNavigationEvents: 1
  m_DragThreshold: 10
--- !u!4 &637969960
Transform:
  m_ObjectHideFlags: 0
  m_CorrespondingSourceObject: {fileID: 0}
  m_PrefabInstance: {fileID: 0}
  m_PrefabAsset: {fileID: 0}
  m_GameObject: {fileID: 637969957}
  m_LocalRotation: {x: 0, y: 0, z: 0, w: 1}
  m_LocalPosition: {x: 0, y: 0, z: 0}
  m_LocalScale: {x: 1, y: 1, z: 1}
  m_Children: []
  m_Father: {fileID: 0}
  m_RootOrder: 0
  m_LocalEulerAnglesHint: {x: 0, y: 0, z: 0}
--- !u!1001 &844414450
PrefabInstance:
  m_ObjectHideFlags: 0
  serializedVersion: 2
  m_Modification:
    m_TransformParent: {fileID: 0}
    m_Modifications:
    - target: {fileID: 4561058700780678279, guid: 34ddd5168afcf68489f1763d9691cb23,
        type: 3}
      propertyPath: m_Name
      value: Main Camera
      objectReference: {fileID: 0}
    - target: {fileID: 4561058700780678282, guid: 34ddd5168afcf68489f1763d9691cb23,
        type: 3}
      propertyPath: m_LocalPosition.x
      value: 5.16
      objectReference: {fileID: 0}
    - target: {fileID: 4561058700780678282, guid: 34ddd5168afcf68489f1763d9691cb23,
        type: 3}
      propertyPath: m_LocalPosition.y
      value: 7.13
      objectReference: {fileID: 0}
    - target: {fileID: 4561058700780678282, guid: 34ddd5168afcf68489f1763d9691cb23,
        type: 3}
      propertyPath: m_LocalPosition.z
      value: -6.16
      objectReference: {fileID: 0}
    - target: {fileID: 4561058700780678282, guid: 34ddd5168afcf68489f1763d9691cb23,
        type: 3}
      propertyPath: m_LocalRotation.x
      value: 0.35355338
      objectReference: {fileID: 0}
    - target: {fileID: 4561058700780678282, guid: 34ddd5168afcf68489f1763d9691cb23,
        type: 3}
      propertyPath: m_LocalRotation.y
      value: -0.35355338
      objectReference: {fileID: 0}
    - target: {fileID: 4561058700780678282, guid: 34ddd5168afcf68489f1763d9691cb23,
        type: 3}
      propertyPath: m_LocalRotation.z
      value: 0.1464466
      objectReference: {fileID: 0}
    - target: {fileID: 4561058700780678282, guid: 34ddd5168afcf68489f1763d9691cb23,
        type: 3}
      propertyPath: m_LocalRotation.w
      value: 0.8535535
      objectReference: {fileID: 0}
    - target: {fileID: 4561058700780678282, guid: 34ddd5168afcf68489f1763d9691cb23,
        type: 3}
      propertyPath: m_RootOrder
      value: 5
      objectReference: {fileID: 0}
    - target: {fileID: 4561058700780678282, guid: 34ddd5168afcf68489f1763d9691cb23,
        type: 3}
      propertyPath: m_LocalEulerAnglesHint.x
      value: 45
      objectReference: {fileID: 0}
    - target: {fileID: 4561058700780678282, guid: 34ddd5168afcf68489f1763d9691cb23,
        type: 3}
      propertyPath: m_LocalEulerAnglesHint.y
      value: -45
      objectReference: {fileID: 0}
    - target: {fileID: 4561058700780678282, guid: 34ddd5168afcf68489f1763d9691cb23,
        type: 3}
      propertyPath: m_LocalEulerAnglesHint.z
      value: 0
      objectReference: {fileID: 0}
    - target: {fileID: 4561058700780678283, guid: 34ddd5168afcf68489f1763d9691cb23,
        type: 3}
      propertyPath: sceneCenter
      value: 
      objectReference: {fileID: 966429259}
    - target: {fileID: 4561058700780678283, guid: 34ddd5168afcf68489f1763d9691cb23,
        type: 3}
      propertyPath: useSceneCenter
      value: 1
      objectReference: {fileID: 0}
    m_RemovedComponents: []
  m_SourcePrefab: {fileID: 100100000, guid: 34ddd5168afcf68489f1763d9691cb23, type: 3}
--- !u!1 &966429258
GameObject:
  m_ObjectHideFlags: 0
  m_CorrespondingSourceObject: {fileID: 0}
  m_PrefabInstance: {fileID: 0}
  m_PrefabAsset: {fileID: 0}
  serializedVersion: 6
  m_Component:
  - component: {fileID: 966429259}
  m_Layer: 0
  m_Name: SceneCenter
  m_TagString: Untagged
  m_Icon: {fileID: 0}
  m_NavMeshLayer: 0
  m_StaticEditorFlags: 0
  m_IsActive: 1
--- !u!4 &966429259
Transform:
  m_ObjectHideFlags: 0
  m_CorrespondingSourceObject: {fileID: 0}
  m_PrefabInstance: {fileID: 0}
  m_PrefabAsset: {fileID: 0}
  m_GameObject: {fileID: 966429258}
  m_LocalRotation: {x: 0, y: 0, z: 0, w: 1}
  m_LocalPosition: {x: 0, y: 0, z: -1}
  m_LocalScale: {x: 1, y: 1, z: 1}
  m_Children: []
  m_Father: {fileID: 0}
  m_RootOrder: 4
  m_LocalEulerAnglesHint: {x: 0, y: 0, z: 0}
--- !u!1001 &1441533315
PrefabInstance:
  m_ObjectHideFlags: 0
  serializedVersion: 2
  m_Modification:
    m_TransformParent: {fileID: 0}
    m_Modifications:
    - target: {fileID: 398784423, guid: ddb132414acfcaf4fb8ce9e7cc11f926, type: 3}
      propertyPath: blockStateHUD
      value: 
      objectReference: {fileID: 1718406945}
    - target: {fileID: 276856234990031119, guid: ddb132414acfcaf4fb8ce9e7cc11f926,
        type: 3}
      propertyPath: m_LocalPosition.x
      value: -1
      objectReference: {fileID: 0}
    - target: {fileID: 276856234990031119, guid: ddb132414acfcaf4fb8ce9e7cc11f926,
        type: 3}
      propertyPath: m_LocalPosition.y
      value: 0.6
      objectReference: {fileID: 0}
    - target: {fileID: 276856234990031119, guid: ddb132414acfcaf4fb8ce9e7cc11f926,
        type: 3}
      propertyPath: m_LocalPosition.z
      value: 0
      objectReference: {fileID: 0}
    - target: {fileID: 276856234990031119, guid: ddb132414acfcaf4fb8ce9e7cc11f926,
        type: 3}
      propertyPath: m_LocalRotation.x
      value: 0
      objectReference: {fileID: 0}
    - target: {fileID: 276856234990031119, guid: ddb132414acfcaf4fb8ce9e7cc11f926,
        type: 3}
      propertyPath: m_LocalRotation.y
      value: 0
      objectReference: {fileID: 0}
    - target: {fileID: 276856234990031119, guid: ddb132414acfcaf4fb8ce9e7cc11f926,
        type: 3}
      propertyPath: m_LocalRotation.z
      value: 0
      objectReference: {fileID: 0}
    - target: {fileID: 276856234990031119, guid: ddb132414acfcaf4fb8ce9e7cc11f926,
        type: 3}
      propertyPath: m_LocalRotation.w
      value: 1
      objectReference: {fileID: 0}
    - target: {fileID: 276856234990031119, guid: ddb132414acfcaf4fb8ce9e7cc11f926,
        type: 3}
      propertyPath: m_RootOrder
      value: 7
      objectReference: {fileID: 0}
    - target: {fileID: 276856234990031119, guid: ddb132414acfcaf4fb8ce9e7cc11f926,
        type: 3}
      propertyPath: m_LocalEulerAnglesHint.x
      value: 0
      objectReference: {fileID: 0}
    - target: {fileID: 276856234990031119, guid: ddb132414acfcaf4fb8ce9e7cc11f926,
        type: 3}
      propertyPath: m_LocalEulerAnglesHint.y
      value: 0
      objectReference: {fileID: 0}
    - target: {fileID: 276856234990031119, guid: ddb132414acfcaf4fb8ce9e7cc11f926,
        type: 3}
      propertyPath: m_LocalEulerAnglesHint.z
      value: 0
      objectReference: {fileID: 0}
    - target: {fileID: 919407786292268288, guid: ddb132414acfcaf4fb8ce9e7cc11f926,
        type: 3}
      propertyPath: cameraObj
      value: 
      objectReference: {fileID: 10918724}
    - target: {fileID: 2026826286342149550, guid: ddb132414acfcaf4fb8ce9e7cc11f926,
        type: 3}
      propertyPath: m_Name
      value: BaseIceBlock
      objectReference: {fileID: 0}
    m_RemovedComponents: []
  m_SourcePrefab: {fileID: 100100000, guid: ddb132414acfcaf4fb8ce9e7cc11f926, type: 3}
--- !u!1001 &1490984145
PrefabInstance:
  m_ObjectHideFlags: 0
  serializedVersion: 2
  m_Modification:
    m_TransformParent: {fileID: 0}
    m_Modifications:
    - target: {fileID: 8796322233993883186, guid: dfd75d804943fec4f8ad3dba644bbd54,
        type: 3}
      propertyPath: m_LocalPosition.x
      value: 4
      objectReference: {fileID: 0}
    - target: {fileID: 8796322233993883186, guid: dfd75d804943fec4f8ad3dba644bbd54,
        type: 3}
      propertyPath: m_LocalPosition.y
      value: 4
      objectReference: {fileID: 0}
    - target: {fileID: 8796322233993883186, guid: dfd75d804943fec4f8ad3dba644bbd54,
        type: 3}
      propertyPath: m_LocalPosition.z
      value: -4
      objectReference: {fileID: 0}
    - target: {fileID: 8796322233993883186, guid: dfd75d804943fec4f8ad3dba644bbd54,
        type: 3}
      propertyPath: m_LocalRotation.x
      value: -0.075646356
      objectReference: {fileID: 0}
    - target: {fileID: 8796322233993883186, guid: dfd75d804943fec4f8ad3dba644bbd54,
        type: 3}
      propertyPath: m_LocalRotation.y
      value: -0.86271536
      objectReference: {fileID: 0}
    - target: {fileID: 8796322233993883186, guid: dfd75d804943fec4f8ad3dba644bbd54,
        type: 3}
      propertyPath: m_LocalRotation.z
      value: 0.3814724
      objectReference: {fileID: 0}
    - target: {fileID: 8796322233993883186, guid: dfd75d804943fec4f8ad3dba644bbd54,
        type: 3}
      propertyPath: m_LocalRotation.w
      value: -0.32323167
      objectReference: {fileID: 0}
    - target: {fileID: 8796322233993883186, guid: dfd75d804943fec4f8ad3dba644bbd54,
        type: 3}
      propertyPath: m_RootOrder
      value: 6
      objectReference: {fileID: 0}
    - target: {fileID: 8796322233993883186, guid: dfd75d804943fec4f8ad3dba644bbd54,
        type: 3}
      propertyPath: m_LocalEulerAnglesHint.x
      value: 45
      objectReference: {fileID: 0}
    - target: {fileID: 8796322233993883186, guid: dfd75d804943fec4f8ad3dba644bbd54,
        type: 3}
      propertyPath: m_LocalEulerAnglesHint.y
      value: -225
      objectReference: {fileID: 0}
    - target: {fileID: 8796322233993883186, guid: dfd75d804943fec4f8ad3dba644bbd54,
        type: 3}
      propertyPath: m_LocalEulerAnglesHint.z
      value: -9.449
      objectReference: {fileID: 0}
    - target: {fileID: 8796322233993883196, guid: dfd75d804943fec4f8ad3dba644bbd54,
        type: 3}
      propertyPath: m_Name
      value: Light1
      objectReference: {fileID: 0}
    m_RemovedComponents: []
  m_SourcePrefab: {fileID: 100100000, guid: dfd75d804943fec4f8ad3dba644bbd54, type: 3}
--- !u!1001 &1625461550
PrefabInstance:
  m_ObjectHideFlags: 0
  serializedVersion: 2
  m_Modification:
    m_TransformParent: {fileID: 0}
    m_Modifications:
    - target: {fileID: 7139075547087454372, guid: 94a9efdef054d66428a6a4b1f66bf1b9,
        type: 3}
      propertyPath: m_LocalPosition.x
      value: -1
      objectReference: {fileID: 0}
    - target: {fileID: 7139075547087454372, guid: 94a9efdef054d66428a6a4b1f66bf1b9,
        type: 3}
      propertyPath: m_LocalPosition.y
      value: 0.1
      objectReference: {fileID: 0}
    - target: {fileID: 7139075547087454372, guid: 94a9efdef054d66428a6a4b1f66bf1b9,
        type: 3}
      propertyPath: m_LocalPosition.z
      value: -1
      objectReference: {fileID: 0}
    - target: {fileID: 7139075547087454372, guid: 94a9efdef054d66428a6a4b1f66bf1b9,
        type: 3}
      propertyPath: m_LocalRotation.x
      value: 0.7071068
      objectReference: {fileID: 0}
    - target: {fileID: 7139075547087454372, guid: 94a9efdef054d66428a6a4b1f66bf1b9,
        type: 3}
      propertyPath: m_LocalRotation.y
      value: 0
      objectReference: {fileID: 0}
    - target: {fileID: 7139075547087454372, guid: 94a9efdef054d66428a6a4b1f66bf1b9,
        type: 3}
      propertyPath: m_LocalRotation.z
      value: 0
      objectReference: {fileID: 0}
    - target: {fileID: 7139075547087454372, guid: 94a9efdef054d66428a6a4b1f66bf1b9,
        type: 3}
      propertyPath: m_LocalRotation.w
      value: 0.7071068
      objectReference: {fileID: 0}
    - target: {fileID: 7139075547087454372, guid: 94a9efdef054d66428a6a4b1f66bf1b9,
        type: 3}
      propertyPath: m_RootOrder
      value: 10
      objectReference: {fileID: 0}
    - target: {fileID: 7139075547087454372, guid: 94a9efdef054d66428a6a4b1f66bf1b9,
        type: 3}
      propertyPath: m_LocalEulerAnglesHint.x
      value: 90
      objectReference: {fileID: 0}
    - target: {fileID: 7139075547087454372, guid: 94a9efdef054d66428a6a4b1f66bf1b9,
        type: 3}
      propertyPath: m_LocalEulerAnglesHint.y
      value: 0
      objectReference: {fileID: 0}
    - target: {fileID: 7139075547087454372, guid: 94a9efdef054d66428a6a4b1f66bf1b9,
        type: 3}
      propertyPath: m_LocalEulerAnglesHint.z
      value: 0
      objectReference: {fileID: 0}
    - target: {fileID: 7139075547087454392, guid: 94a9efdef054d66428a6a4b1f66bf1b9,
        type: 3}
      propertyPath: m_Name
      value: Tile (7)
      objectReference: {fileID: 0}
    m_RemovedComponents: []
  m_SourcePrefab: {fileID: 100100000, guid: 94a9efdef054d66428a6a4b1f66bf1b9, type: 3}
--- !u!1001 &1706996135
PrefabInstance:
  m_ObjectHideFlags: 0
  serializedVersion: 2
  m_Modification:
    m_TransformParent: {fileID: 0}
    m_Modifications:
    - target: {fileID: 6913757253360990861, guid: 84d5e828f9dc3094688d9ba14a0e6681,
        type: 3}
      propertyPath: m_Name
      value: Light2
      objectReference: {fileID: 0}
    - target: {fileID: 6913757253360990863, guid: 84d5e828f9dc3094688d9ba14a0e6681,
        type: 3}
      propertyPath: m_LocalPosition.x
      value: 3
      objectReference: {fileID: 0}
    - target: {fileID: 6913757253360990863, guid: 84d5e828f9dc3094688d9ba14a0e6681,
        type: 3}
      propertyPath: m_LocalPosition.y
      value: 3
      objectReference: {fileID: 0}
    - target: {fileID: 6913757253360990863, guid: 84d5e828f9dc3094688d9ba14a0e6681,
        type: 3}
      propertyPath: m_LocalPosition.z
      value: -3
      objectReference: {fileID: 0}
    - target: {fileID: 6913757253360990863, guid: 84d5e828f9dc3094688d9ba14a0e6681,
        type: 3}
      propertyPath: m_LocalRotation.x
      value: 0.33716407
      objectReference: {fileID: 0}
    - target: {fileID: 6913757253360990863, guid: 84d5e828f9dc3094688d9ba14a0e6681,
        type: 3}
      propertyPath: m_LocalRotation.y
      value: -0.3692159
      objectReference: {fileID: 0}
    - target: {fileID: 6913757253360990863, guid: 84d5e828f9dc3094688d9ba14a0e6681,
        type: 3}
      propertyPath: m_LocalRotation.z
      value: 0.18498601
      objectReference: {fileID: 0}
    - target: {fileID: 6913757253360990863, guid: 84d5e828f9dc3094688d9ba14a0e6681,
        type: 3}
      propertyPath: m_LocalRotation.w
      value: 0.8460379
      objectReference: {fileID: 0}
    - target: {fileID: 6913757253360990863, guid: 84d5e828f9dc3094688d9ba14a0e6681,
        type: 3}
      propertyPath: m_RootOrder
      value: 9
      objectReference: {fileID: 0}
    - target: {fileID: 6913757253360990863, guid: 84d5e828f9dc3094688d9ba14a0e6681,
        type: 3}
      propertyPath: m_LocalEulerAnglesHint.x
      value: 45
      objectReference: {fileID: 0}
    - target: {fileID: 6913757253360990863, guid: 84d5e828f9dc3094688d9ba14a0e6681,
        type: 3}
      propertyPath: m_LocalEulerAnglesHint.y
      value: -45
      objectReference: {fileID: 0}
    - target: {fileID: 6913757253360990863, guid: 84d5e828f9dc3094688d9ba14a0e6681,
        type: 3}
      propertyPath: m_LocalEulerAnglesHint.z
      value: 5.196
      objectReference: {fileID: 0}
    m_RemovedComponents: []
  m_SourcePrefab: {fileID: 100100000, guid: 84d5e828f9dc3094688d9ba14a0e6681, type: 3}
--- !u!1 &1718406945 stripped
GameObject:
  m_CorrespondingSourceObject: {fileID: 8029064343249847697, guid: ef61ee152f3350141a84faf128e49257,
    type: 3}
  m_PrefabInstance: {fileID: 606785013}
  m_PrefabAsset: {fileID: 0}
--- !u!1001 &2132073151
PrefabInstance:
  m_ObjectHideFlags: 0
  serializedVersion: 2
  m_Modification:
    m_TransformParent: {fileID: 0}
    m_Modifications:
    - target: {fileID: 5752344561068337670, guid: f02be982aa9e77a4f890b7f59d920084,
        type: 3}
      propertyPath: m_LocalPosition.x
      value: 1
      objectReference: {fileID: 0}
    - target: {fileID: 5752344561068337670, guid: f02be982aa9e77a4f890b7f59d920084,
        type: 3}
      propertyPath: m_LocalPosition.y
      value: 0.1
      objectReference: {fileID: 0}
    - target: {fileID: 5752344561068337670, guid: f02be982aa9e77a4f890b7f59d920084,
        type: 3}
      propertyPath: m_LocalPosition.z
      value: 0
      objectReference: {fileID: 0}
    - target: {fileID: 5752344561068337670, guid: f02be982aa9e77a4f890b7f59d920084,
        type: 3}
      propertyPath: m_LocalRotation.x
      value: 0.7071068
      objectReference: {fileID: 0}
    - target: {fileID: 5752344561068337670, guid: f02be982aa9e77a4f890b7f59d920084,
        type: 3}
      propertyPath: m_LocalRotation.y
      value: 0
      objectReference: {fileID: 0}
    - target: {fileID: 5752344561068337670, guid: f02be982aa9e77a4f890b7f59d920084,
        type: 3}
      propertyPath: m_LocalRotation.z
      value: 0
      objectReference: {fileID: 0}
    - target: {fileID: 5752344561068337670, guid: f02be982aa9e77a4f890b7f59d920084,
        type: 3}
      propertyPath: m_LocalRotation.w
      value: 0.7071068
      objectReference: {fileID: 0}
    - target: {fileID: 5752344561068337670, guid: f02be982aa9e77a4f890b7f59d920084,
        type: 3}
      propertyPath: m_RootOrder
      value: 3
      objectReference: {fileID: 0}
    - target: {fileID: 5752344561068337670, guid: f02be982aa9e77a4f890b7f59d920084,
        type: 3}
      propertyPath: m_LocalEulerAnglesHint.x
      value: 90
      objectReference: {fileID: 0}
    - target: {fileID: 5752344561068337670, guid: f02be982aa9e77a4f890b7f59d920084,
        type: 3}
      propertyPath: m_LocalEulerAnglesHint.y
      value: 0
      objectReference: {fileID: 0}
    - target: {fileID: 5752344561068337670, guid: f02be982aa9e77a4f890b7f59d920084,
        type: 3}
      propertyPath: m_LocalEulerAnglesHint.z
      value: 0
      objectReference: {fileID: 0}
    - target: {fileID: 5752344561068337690, guid: f02be982aa9e77a4f890b7f59d920084,
        type: 3}
      propertyPath: m_Name
      value: WarpTile (1)
      objectReference: {fileID: 0}
    m_RemovedComponents: []
  m_SourcePrefab: {fileID: 100100000, guid: f02be982aa9e77a4f890b7f59d920084, type: 3}
--- !u!1001 &3030591302300610313
PrefabInstance:
  m_ObjectHideFlags: 0
  serializedVersion: 2
  m_Modification:
    m_TransformParent: {fileID: 0}
    m_Modifications:
    - target: {fileID: 5752344561068337670, guid: f02be982aa9e77a4f890b7f59d920084,
        type: 3}
      propertyPath: m_LocalPosition.x
      value: -1
      objectReference: {fileID: 0}
    - target: {fileID: 5752344561068337670, guid: f02be982aa9e77a4f890b7f59d920084,
        type: 3}
      propertyPath: m_LocalPosition.y
      value: 0.1
      objectReference: {fileID: 0}
    - target: {fileID: 5752344561068337670, guid: f02be982aa9e77a4f890b7f59d920084,
        type: 3}
      propertyPath: m_LocalPosition.z
      value: -2
      objectReference: {fileID: 0}
    - target: {fileID: 5752344561068337670, guid: f02be982aa9e77a4f890b7f59d920084,
        type: 3}
      propertyPath: m_LocalRotation.x
      value: 0.7071068
      objectReference: {fileID: 0}
    - target: {fileID: 5752344561068337670, guid: f02be982aa9e77a4f890b7f59d920084,
        type: 3}
      propertyPath: m_LocalRotation.y
      value: 0
      objectReference: {fileID: 0}
    - target: {fileID: 5752344561068337670, guid: f02be982aa9e77a4f890b7f59d920084,
        type: 3}
      propertyPath: m_LocalRotation.z
      value: 0
      objectReference: {fileID: 0}
    - target: {fileID: 5752344561068337670, guid: f02be982aa9e77a4f890b7f59d920084,
        type: 3}
      propertyPath: m_LocalRotation.w
      value: 0.7071068
      objectReference: {fileID: 0}
    - target: {fileID: 5752344561068337670, guid: f02be982aa9e77a4f890b7f59d920084,
        type: 3}
      propertyPath: m_RootOrder
      value: 12
      objectReference: {fileID: 0}
    - target: {fileID: 5752344561068337670, guid: f02be982aa9e77a4f890b7f59d920084,
        type: 3}
      propertyPath: m_LocalEulerAnglesHint.x
      value: 90
      objectReference: {fileID: 0}
    - target: {fileID: 5752344561068337670, guid: f02be982aa9e77a4f890b7f59d920084,
        type: 3}
      propertyPath: m_LocalEulerAnglesHint.y
      value: 0
      objectReference: {fileID: 0}
    - target: {fileID: 5752344561068337670, guid: f02be982aa9e77a4f890b7f59d920084,
        type: 3}
      propertyPath: m_LocalEulerAnglesHint.z
      value: 0
      objectReference: {fileID: 0}
    - target: {fileID: 5752344561068337690, guid: f02be982aa9e77a4f890b7f59d920084,
        type: 3}
      propertyPath: m_Name
      value: WarpTile
      objectReference: {fileID: 0}
    m_RemovedComponents: []
  m_SourcePrefab: {fileID: 100100000, guid: f02be982aa9e77a4f890b7f59d920084, type: 3}
